,STANDARD 1,STANDARD 2,STANDARD 3,ROOM,HIP HOP,JUNGLE,TECHNO,POWER,ELECTRONIC,TR-808,DANCE ,CR-78,TR-606,TR-707,TR-909,JAZZ,BRUSH,ORCHESTRA,ETHNIC,KICK & SNARE,ASIA,CYMBAL & CLAPS,SFX,RHYTHM FX,RHYTHM FX 2,CM-64/32L Compatible
0,[88] Standard1 Kick1,[88] Standard1 Kick1,[88] Standard1 Kick1,[88] Standard1 Kick1,[88] Electric Kick2,[88] Electric Kick2,[88] Electric Kick2,[88] Standard1 Kick1,[88] Electric Kick2,[88] Electric Kick2,[88] Electric Kick2,[88] Electric Kick2,[88] Electric Kick2,[88] Electric Kick2,[88] Electric Kick2,[88] Standard1 Kick1,[88] Standard1 Kick1,[88] Standard1 Kick1,,,,,,,,
1,[88] Standard1 Kick2,[88] Standard1 Kick2,[88] Standard1 Kick2,[88] Standard1 Kick2,[88] Electric Kick1,[88] Electric Kick1,[88] Electric Kick1,[88] Standard1 Kick2,[88] Electric Kick1,[88] Electric Kick1,[88] Electric Kick1,[88] Electric Kick1,[88] Electric Kick1,[88] Electric Kick1,[88] Electric Kick1,[88] Standard1 Kick2,[88] Standard1 Kick2,[88] Standard1 Kick2,,,,,,,,
2,[88] Standard2 Kick1,[88] Standard2 Kick1,[88] Standard2 Kick1,[88] Standard2 Kick1,CR-78 Kick1,CR-78 Kick1,CR-78 Kick1,[88] Standard2 Kick1,CR-78 Kick1,CR-78 Kick1,CR-78 Kick1,CR-78 Kick1,CR-78 Kick1,CR-78 Kick1,CR-78 Kick1,[88] Standard2 Kick1,[88] Standard2 Kick1,[88] Standard2 Kick1,,,,,,,,
3,[88] Standard2 Kick2,[88] Standard2 Kick2,[88] Standard2 Kick2,[88] Standard2 Kick2,CR-78 Kick2,CR-78 Kick2,CR-78 Kick2,[88] Standard2 Kick2,CR-78 Kick2,CR-78 Kick2,CR-78 Kick2,CR-78 Kick2,CR-78 Kick2,CR-78 Kick2,CR-78 Kick2,[88] Standard2 Kick2,[88] Standard2 Kick2,[88] Standard2 Kick2,,,,,,,,
4,[55] Kick Drum1,[55] Kick Drum1,[55] Kick Drum1,[55] Kick Drum1,TR-606 Kick1,TR-606 Kick1,TR-606 Kick1,[55] Kick Drum1,TR-606 Kick1,TR-606 Kick1,TR-606 Kick1,TR-606 Kick1,TR-606 Kick1,TR-606 Kick1,TR-606 Kick1,[55] Kick Drum1,[55] Kick Drum1,[55] Kick Drum1,,,,,,,,
5,[55] Kick Drum2,[55] Kick Drum2,[55] Kick Drum2,[55] Kick Drum2,TR-707 Kick1,TR-707 Kick1,TR-707 Kick1,[55] Kick Drum2,TR-707 Kick1,TR-707 Kick1,TR-707 Kick1,TR-707 Kick1,TR-707 Kick1,TR-707 Kick1,TR-707 Kick1,[55] Kick Drum2,[55] Kick Drum2,[55] Kick Drum2,,,,,,,,
6,[88] Jazz Kick1,[88] Jazz Kick1,[88] Jazz Kick1,[88] Jazz Kick1,[55] TR-808 Kick,[55] TR-808 Kick,[55] TR-808 Kick,[88] Jazz Kick1,[55] TR-808 Kick,[55] TR-808 Kick,[55] TR-808 Kick,[55] TR-808 Kick,[55] TR-808 Kick,[55] TR-808 Kick,[55] TR-808 Kick,[88] Jazz Kick1,[88] Jazz Kick1,[88] Jazz Kick1,,,,,,,,
7,[88] Jazz Kick2,[88] Jazz Kick2,[88] Jazz Kick2,[88] Jazz Kick2,[88] TR-808 Kick,[88] TR-808 Kick,[88] TR-808 Kick,[88] Jazz Kick2,[88] TR-808 Kick,[88] TR-808 Kick,[88] TR-808 Kick,[88] TR-808 Kick,[88] TR-808 Kick,[88] TR-808 Kick,[88] TR-808 Kick,[88] Jazz Kick2,[88] Jazz Kick2,[88] Jazz Kick2,,,,,,,,
8,[88] Room Kick1,[88] Room Kick1,[88] Room Kick1,[88] Room Kick1,TR-808 Kick2,TR-808 Kick2,TR-808 Kick2,[88] Room Kick1,TR-808 Kick2,TR-808 Kick2,TR-808 Kick2,TR-808 Kick2,TR-808 Kick2,TR-808 Kick2,TR-808 Kick2,[88] Room Kick1,[88] Room Kick1,[88] Room Kick1,,,,,,,,
9,[88] Room Kick2,[88] Room Kick2,[88] Room Kick2,[88] Room Kick2,[88] TR-909 Kick,[88] TR-909 Kick,[88] TR-909 Kick,[88] Room Kick2,[88] TR-909 Kick,[88] TR-909 Kick,[88] TR-909 Kick,[88] TR-909 Kick,[88] TR-909 Kick,[88] TR-909 Kick,[88] TR-909 Kick,[88] Room Kick2,[88] Room Kick2,[88] Room Kick2,,,,,,,,
10,[88] Power Kick1,[88] Power Kick1,[88] Power Kick1,[88] Power Kick1,[88] Dance Kick,[88] Dance Kick,[88] Dance Kick,[88] Power Kick1,[88] Dance Kick,[88] Dance Kick,[88] Dance Kick,[88] Dance Kick,[88] Dance Kick,[88] Dance Kick,[88] Dance Kick,[88] Power Kick1,[88] Power Kick1,[88] Power Kick1,,,,,,,,
11,[88] Power Kick2,[88] Power Kick2,[88] Power Kick2,[88] Power Kick2,Hip-Hop Kick2,Hip-Hop Kick2,Hip-Hop Kick2,[88] Power Kick2,Hip-Hop Kick2,Hip-Hop Kick2,Hip-Hop Kick2,Hip-Hop Kick2,Hip-Hop Kick2,Hip-Hop Kick2,Hip-Hop Kick2,[88] Power Kick2,[88] Power Kick2,[88] Power Kick2,,,,,,,,
12,[88] Electric Kick2,[88] Electric Kick2,[88] Electric Kick2,[88] Electric Kick2,TR-909 Kick1,TR-909 Kick1,TR-909 Kick1,[88] Electric Kick2,TR-909 Kick1,TR-909 Kick1,TR-909 Kick1,TR-909 Kick1,TR-909 Kick1,TR-909 Kick1,TR-909 Kick1,[88] Electric Kick2,[88] Electric Kick2,[88] Electric Kick2,,,,,,,,
13,[88] Electric Kick1,[88] Electric Kick1,[88] Electric Kick1,[88] Electric Kick1,Hip-Hop Kick3,Hip-Hop Kick3,Hip-Hop Kick3,[88] Electric Kick1,Hip-Hop Kick3,Hip-Hop Kick3,Hip-Hop Kick3,Hip-Hop Kick3,Hip-Hop Kick3,Hip-Hop Kick3,Hip-Hop Kick3,[88] Electric Kick1,[88] Electric Kick1,[88] Electric Kick1,,,,,,,,
14,[88] TR-808 Kick,[88] TR-808 Kick,[88] TR-808 Kick,[88] TR-808 Kick,Jungle Kick1,Jungle Kick1,Jungle Kick1,[88] TR-808 Kick,Jungle Kick1,Jungle Kick1,Jungle Kick1,Jungle Kick1,Jungle Kick1,Jungle Kick1,Jungle Kick1,[88] TR-808 Kick,[88] TR-808 Kick,[88] TR-808 Kick,,,,,,,,
15,[88] TR-909 Kick,[88] TR-909 Kick,[88] TR-909 Kick,[88] TR-909 Kick,Techno Kick1,Techno Kick1,Techno Kick1,[88] TR-909 Kick,Techno Kick1,Techno Kick1,Techno Kick1,Techno Kick1,Techno Kick1,Techno Kick1,Techno Kick1,[88] TR-909 Kick,[88] TR-909 Kick,[88] TR-909 Kick,,,,,,,,
16,[88] Dance Kick,[88] Dance Kick,[88] Dance Kick,[88] Dance Kick,Bounce Kick,Bounce Kick,Bounce Kick,[88] Dance Kick,Bounce Kick,Bounce Kick,Bounce Kick,Bounce Kick,Bounce Kick,Bounce Kick,Bounce Kick,[88] Dance Kick,[88] Dance Kick,[88] Dance Kick,,,,,,,,
17,Voice One,Voice One,Voice One,Voice One,Voice One,Voice One,Voice One,Voice One,Voice One,Voice One,Voice One,Voice One,Voice One,Voice One,Voice One,Voice One,Voice One,Voice One,,,,,,,,
18,Voice Two,Voice Two,Voice Two,Voice Two,Voice Two,Voice Two,Voice Two,Voice Two,Voice Two,Voice Two,Voice Two,Voice Two,Voice Two,Voice Two,Voice Two,Voice Two,Voice Two,Voice Two,,,,,,,,
19,Voice Three,Voice Three,Voice Three,Voice Three,Voice Three,Voice Three,Voice Three,Voice Three,Voice Three,Voice Three,Voice Three,Voice Three,Voice Three,Voice Three,Voice Three,Voice Three,Voice Three,Voice Three,,,,,,,,
20,,,,,,,,,,,,,,,,,,,,,,,,,,
21,,,,,,,,,,,,,,,,,,,,,,,MC-505 Beep1,,,
22,MC-505 Beep1,MC-505 Beep1,MC-505 Beep1,MC-505 Beep1,MC-505 Beep1,MC-505 Beep1,MC-505 Beep1,MC-505 Beep1,,,,,,,,,,,,,,,MC-505 Beep2,,,
23,MC-505 Beep2,MC-505 Beep2,MC-505 Beep2,MC-505 Beep2,MC-505 Beep2,MC-505 Beep2,MC-505 Beep2,MC-505 Beep2,,,,,,,,,,,,,,,Guitar Slide,,,
24,Concert SD,Concert SD,Concert SD,Concert SD,Concert SD,Concert SD,Concert SD,Concert SD,MC-505 Beep1,MC-505 Beep1,MC-505 Beep1,MC-505 Beep1,MC-505 Beep1,MC-505 Beep1,MC-505 Beep1,MC-505 Beep1,MC-505 Beep1,MC-505 Beep1,,,,,Guitar Wah,,,
25,Snare Roll,Snare Roll,Snare Roll,Snare Roll,Snare Roll,Snare Roll,Snare Roll,Snare Roll,MC-505 Beep2,MC-505 Beep2,MC-505 Beep2,MC-505 Beep2,MC-505 Beep2,MC-505 Beep2,MC-505 Beep2,MC-505 Beep2,MC-505 Beep2,MC-505 Beep2,Finger Snap,CR-78 Kick1,Gamelan Gong C#,,Guitar Slap,,,
26,Finger Snap2,Finger Snap,Finger Snap2,Finger Snap,Finger Snap2,Finger Snap2,Finger Snap2,Finger Snap2,Concert SD,Concert SD,Concert SD,Concert SD,Concert SD,Concert SD,Concert SD,Concert SD,Concert SD,Concert SD,Tambourine,CR-78 Kick2,Gamelan Gong D#,,Chord Stroke Down,,,
27,High Q,High Q,High Q,High Q,High Q,High Q,High Q,High Q,Snare Roll,Snare Roll,Snare Roll,Snare Roll,Snare Roll,Snare Roll,Snare Roll,Snare Roll,Snare Roll,Snare Roll,Castanets,TR-606 Kick1,Gamelan Gong G,,Chord Stroke Up,,,
28,Slap,Slap,Slap,Slap,Slap,Slap,Slap,Slap,Finger Snap,Finger Snap2,Finger Snap,Finger Snap2,Finger Snap2,Finger Snap2,Finger Snap2,Finger Snap,Finger Snap,Finger Snap,Crash Cymbal1,TR-707 Kick,Gamelan Gong A#,,Biwa,,,
29,Scratch Push,Scratch Push,Scratch Push,Scratch Push,Scratch Push2,Scratch Push2,Scratch Push2,Scratch Push,High Q,High Q,High Q,High Q,High Q,High Q,High Q,High Q,High Q,Closed Hi-Hat,Snare Roll,TR-808 Kick,Gamelan Gong c,,Phonograph Noise,,,
30,Scratch Pull,Scratch Pull,Scratch Pull,Scratch Pull,Scratch Pull2,Scratch Pull2,Scratch Pull2,Scratch Pull,Slap,Slap,Slap,Slap,Slap,Slap,Slap,Slap,Slap,Pedal Hi-Hat,Concert SD,Hip-Hop Kick2,Gamelan Gong c#,,Tape Rewind,,,
31,Sticks,Sticks,Sticks,Sticks,Sticks,Sticks,Sticks,Sticks,Scratch Push,Scratch Push,Scratch Push2,Scratch Push2,Scratch Push2,Scratch Push2,Scratch Push2,Scratch Push,Scratch Push,Open Hi-Hat,Concert Cymbal,TR-909 Kick1,Gamelan Gong d#,,Scratch Push2,,,
32,Square Click,Square Click,Square Click,Square Click,Square Click,Square Click,Square Click,Square Click,Scratch Pull,Scratch Pull,Scratch Pull2,Scratch Pull2,Scratch Pull2,Scratch Pull2,Scratch Pull2,Scratch Pull,Scratch Pull,Ride Cymbal,Concert BD1,Hip-Hop Kick3,Gamelan Gong g,Reverse Open Hi-Hat,Scratch Pull2,,,
33,Metronome Click,Metronome Click,Metronome Click,Metronome Click,Metronome Click,Metronome Click,Metronome Click,Metronome Click,Sticks,Sticks,Sticks,Sticks,Sticks,Sticks,Sticks,Sticks,Sticks,Sticks,Jingle Bell,Hip-Hop Kick1,Gamelan Gong a#,Reverse Closed Hi-Hat1,Cutting Noise 2 Up,,,
34,Metronome Bell,Metronome Bell,Metronome Bell,Metronome Bell,Metronome Bell,Metronome Bell,Metronome Bell,Metronome Bell,Square Click,Square Click,Square Click,Square Click,Square Click,Square Click,Square Click,Square Click,Square Click,Square Click,Bell Tree,Jungle Kick2,Gamelan Gong C,Reverse Closed Hi-Hat2,Cutting Noise 2 Down,,,
35,Kick Drum 2,Standard2 Kick2,Standard3 Kick2,Kick Drum 2,Hip-Hop Kick2,Jungle Kick2,Techno Kick2,Kick Drum 2,Metronome Click,Metronome Click,Metronome Click,Metronome Click,Metronome Click,Metronome Click,Metronome Click,Metronome Click,Metronome Click,Metronome Click,Bar Chimes,Jungle Kick1,Gender C#,Jungle Hi-Hat,Distortion Guitar Cutting Noise Up,,,Acoustic Bass Drum
36,Kick Drum 1,Standard2 Kick1,[RND] Kick,Kick Drum 1,Hip-Hop Kick1,Jungle Kick1,Techno Kick1,MONDO Kick,Metronome Bell,Metronome Bell,Metronome Bell,Metronome Bell,Metronome Bell,Metronome Bell,Metronome Bell,Metronome Bell,Metronome Bell,Metronome Bell,Wadaiko,Techno Kick2,Gender D#,[55] Closed Hi-hat,Distortion Guitar Cutting Noise Down,Reverse Kick1,Reverse TR-707 Kick1,Acoustic Bass Drum
37,Side Stick,Side Stick,Side Stick,Side Stick,TR-808 Rim Shot,Side Stick,TR-808 Rim Shot,Side Stick,Kick Drum 2,Kick Drum 2,TR-909 Kick1,CR-78 Kick2,CR-78 Kick2,TR-707 Kick2,Techno Kick2,Jazz BD 2,Jazz BD 2,Concert BD2,Wadaiko Rim,Techno Kick1,Gender G,[88] Closed Hi-hat2,Bass Slide,Reverse Concert Bass Drum,Reverse TR-909 Kick1,Rim Shot
38,Snare Drum 1,Standard2 Snare1,[RND] Snare,Snare Drum 1,Rap Snare,Jungle Snare1,Techno Snare1,Gated SD,Elec BD,808 Bass Drum,Electric Kick2,CR-78 Kick1,TR-606 Kick1,TR-707 Kick1,TR-909 Kick1,Jazz BD 1,Jazz BD 1,Concert BD1,Shime Taiko,Standard1 Kick2,Gender A#,[88] Closed Hi-hat3,Pick Scrape,Reverse Power Kick1,Reverse Hip-Hop Kick1,Acoustic Snare Drum
39,Hand Clap,TR-808 Hand Clap,[RND] Hand Clap,Hand Clap,Hand Clap,Hand Clap2,TR-707 Hand Clap,Hand Clap,Side Stick,808 Rim Shot,Side Stick,CR-78 Rim Shot,CR-78 Rim Shot,TR-707 Rim Shot,TR-909 Rim,Side Stick,Side Stick,Side Stick,Atarigane,Standard1 Kick1,Gender c,Closed Hi-Hat4,High Q,Reverse Electric Kick1,Reverse Jungle Kick2,Hand Clap
40,Snare Drum 2,Standard2 Snare2,Standard3 Snare2,Snare Drum 2,Hip-Hop Snare2,Jungle Snare2,Techno Snare2,Snare Drum 2,Elec SD,808 Snare Drum,House Snare1,CR-78 Snare1,TR-606 Snare1,TR-707 Snare1,TR-909 Snare1,Snare Drum 1,Brush Tap,Concert SD,Hyoushigi,[88] Standard1 Kick1,Bonang C#,Closed Hi-Hat,Slap,Reverse Snare1,Reverse Techno Kick2,Electronic Snare Drum
41,Low Tom 2,Low Tom2,Low Tom2,Room Low Tom 2,TR-909 Low Tom2,TR-909 Low Tom2,TR-808 Low Tom2,Room Low Tom 2,Hand Clap,Hand Clap,Hand Clap,TR-707 Hand Clap,TR-707 Hand Clap,TR-707 Hand Clap,Hand Clap,Hand Clap,Brush Slap,Castanets,Ohkawa,[88] Standard1 Kick2,Bonang D#,TR-707 Closed Hi-Hat,Scratch Push,Reverse Snare2,Reverse TR-606 Snare2,Acoustic Low Tom
42,Closed Hi-Hat,Closed Hi-Hat2,[RND] Closed Hi-Hat,Closed Hi-Hat,Closed Hi-Hat3,TR-606 Closed Hi-Hat,TR-707 Closed Hi-Hat,Closed Hi-Hat,Gated SD,Snare Drum 2,Dance Snare2,CR-78 Snare2,TR-606 Snare2,TR-707 Snare2,TR-909 Snare2,Snare Drum 2,Brush Swirl,Concert SD,High Kotsuzumi,[88] Standard2 Kick1,Bonang G,TR-606 Closed Hi-Hat,Scratch Pull,Reverse Standard1 Snare1,Reverse CR-78 Snare1,Closed High Hat
43,Low Tom 1,Low Tom1,Low Tom1,Room Low Tom 1,TR-909 Low Tom1,TR-909 Low Tom1,TR-808 Low Tom1,Room Low Tom 1,Elec Low Tom 2,808 Low Tom 2,Electric Low Tom2,CR-78 Low Tom2,TR-606 Low Tom2,TR-707 Low Tom2,TR-909 Low Tom2,Low Tom 2,Low Tom 2,Timpani F,Low Kotsuzumi,[88] Standard2 Kick2,Bonang A#,[88] TR-808 Closed Hi-Hat,Sticks,Reverse Snare Drum2,Reverse CR-78 Snare2,Acoustic Low Tom
44,Pedal Hi-Hat,Pedal Hi-Hat2,[RND] Pedal Hi-Hat,Pedal Hi-Hat,Room Pedal Hi-Hat,Jungle Hi-Hat,CR-78 Closed Hi-Hat,Pedal Hi-Hat,Closed Hi-Hat,808 CHH,CR-78 Closed Hi-Hat,CR-78 Closed Hi-Hat,TR-606 Closed Hi-Hat,TR-707 Closed Hi-Hat,TR-707 Closed Hi-Hat,Closed Hi-Hat,Closed Hi-Hat,Timpani F#,Ban Gu,[55] Kick Drum1,Bonang c,TR-808 Closed Hi-Hat,Square Click,Reverse Tight Snare,Reverse Jungle Snare2,Open High Hat 1
45,Mid Tom 2,Mid Tom2,Mid Tom2,Room Mid Tom 2,TR-909 Mid Tom2,TR-909 Mid Tom2,TR-808 Mid Tom2,Room Mid Tom 2,Elec Low Tom 1,808 Low Tom 1,Electric Low Tom1,CR-78 Low Tom1,TR-606 Low Tom1,TR-707 Low Tom1,TR-909 Low Tom1,Low Tom 1,Low Tom 1,Timpani G,Big Gong,[55] Kick Drum2,Thai Gong,CR-78 Closed Hi-Hat,Metronome Click,Reverse 808 Snare,Reverse Techno Snare2,Acoustic Middle Tom
46,Open Hi-Hat,Open Hi-Hat2,[RND] Open Hi-Hat,Open Hi-Hat,Open Hi-Hat3,TR-606 Open Hi-Hat,TR-909 Open Hi-Hat,Open Hi-Hat,Pedal Hi-Hat,808 CHH,TR-808 Closed Hi-Hat2,TR-606 Closed Hi-Hat,TR-606 Closed Hi-Hat,TR-707 Closed Hi-Hat,TR-707 Closed Hi-Hat,Pedal Hi-Hat,Pedal Hi-Hat,Timpani G#,Small Gong,[88] Soft Kick,Rama Cymbal,[55] Pedal Hi-Hat,Metronome Bell,Reverse Tom1,Reverse TR-707 Snare,Open High Hat 1
47,Mid Tom 1,Mid Tom1,Mid Tom1,Room Mid Tom 1,TR-909 Mid Tom1,TR-909 Mid Tom1,TR-808 Mid Tom1,Room Mid Tom 1,Elec Mid Tom 2,808 Mid Tom 2,Electric Mid Tom2,CR-78 Mid Tom2,TR-606 Mid Tom2,TR-707 Mid Tom2,TR-909 Mid Tom2,Mid Tom 2,Mid Tom 2,Timpani A,Bend Gong,[88] Jazz Kick1,Sagat Open,[88] Pedal Hi-Hat,Guitar Fret Noise,Reverse Tom2,Reverse TR-606 Snare1,Acoustic Middle Tom
48,High Tom 2,High Tom2,High Tom2,Room Hi Tom 2,TR-909 High Tom2,TR-909 High Tom2,TR-808 High Tom2,Room Hi Tom 2,Open Hi-Hat,808 OHH,CR-78 Open Hi-Hat,CR-78 Open Hi-Hat,TR-606 Open Hi-Hat,TR-707 Open Hi-Hat,TR-909 Open Hi-Hat,Open Hi-Hat,Open Hi-Hat,Timpani A#,Thai Gong,[88] Jazz Kick2,Sagat Closed,Pedal Hi-Hat,Guitar Cutting Noise Up,Reverse Sticks,Reverse TR-909 Snare1,Acoustic High Tom
49,Crash Cymbal 1,Crash Cymbal1,[RND] Crash Cymbal,Crash Cymbal 1,TR-909 Crash Cymbal,TR-808 Crash Cymbal,TR-909 Crash Cymbal,Crash Cymbal 1,Elec Mid Tom 1,808 Mid Tom 1,Electric Mid Tom1,CR-78 Mid Tom1,TR-606 Mid Tom1,TR-707 Mid Tom1,TR-909 Mid Tom1,Mid Tom 1,Mid Tom 1,Timpani B,Rama Cymbal,[55] Concert BD1,Jaws Harp,Half-Open Hi-Hat1,Guitar Cutting Noise Down,Reverse Slap,Reverse Hip-Hop Snare2,Crash Cymbal
50,High Tom 1,High Tom1,High Tom1,Room Hi Tom 1,TR-909 High Tom1,TR-909 High Tom1,TR-808 High Tom1,Room Hi Tom 1,Elec Hi Tom 2,808 Hi Tom 2,Electric High Tom2,CR-78 High Tom2,TR-606 High Tom2,TR-707 High Tom2,TR-909 High Tom2,High Tom 2,High Tom 2,Timpani c,Gamelan Gong,[88] Room Kick1,Wadaiko,Half-Open Hi-Hat2,String Slap of Double Bass,Reverse Cymbal1,Reverse Jungle Snare1,Acoustic High Tom
51,Ride Cymbal 1,Ride Cymbal1,[RND] Ride Cymbal1,Ride Cymbal 1,Ride Cymbal1,Ride Cymbal1,Ride Cymbal1,Ride Cymbal 1,Crash Cymbal 1,808 Cymbal,TR-808 Crash Cymbal,TR-808 Crash Cymbal,TR-808 Crash Cymbal,TR-909 Crash Cymbal,TR-909 Crash Cymbal,Crash Cymbal 1,Crash Cymbal 1,Timpani c#,Udo Short,[88] Room Kick2,Wadaiko Rim,[55] Open Hi-Hat,Flute Key Click Noise,Reverse Cymbal2,Reverse House Snare,Ride Cymbal
52,Chinese Cymbal,Chinese Cymbal,Chinese Cymbal,Chinese Cymbal,Reverse Cymbal,Reverse Cymbal,Reverse Cymbal,Chinese Cymbal,Elec Hi Tom 1,808 Hi Tom 1,Electric High Tom1,CR-78 High Tom1,TR-606 High Tom1,TR-707 High Tom1,TR-909 High Tom1,High Tom 1,High Tom 1,Timpani d,Udo Long,[88] Power Kick1,Taiko,[88] Open Hi-Hat2,Laughing,Reverse Open Hi-hat,Reverse Closed Hi-Hat,
53,Ride Bell,Ride Bell,[RND] Ride Bell,Ride Bell,Ride Bell,Ride Bell,Ride Bell,Ride Bell,Ride Cymbal 1,Ride Cymbal 1,TR-606 Ride Cymbal,TR-606 Ride Cymbal,TR-606 Ride Cymbal,TR-909 Ride Cymbal,TR-909 Ride Cymbal,Ride Cymbal 1,Ride Cymbal 1,Timpani d#,Udo Slap,[88] Power Kick2,Shimedaiko,[88] Open Hi-Hat3,Screaming,Reverse Ride Cymbal,Reverse TR-606 Closed Hi-Hat,
54,Tambourine,Tambourine,Tambourine,Tambourine,Shake Tambourine,Shake Tambourine,Shake Tambourine,Tambourine,Reverse Cymbal,Chinese Cymbal,Reverse Cymbal,Chinese Cymbal,Chinese Cymbal,Chinese Cymbal,Chinese Cymbal,Chinese Cymbal,Chinese Cymbal,Timpani e,Bendir,[88] Electric Kick2,Atarigane,Open Hi-Hat,Punch,Reverse CR-78 Open Hi-Hat,Reverse TR-707 Closed Hi-Hat,Tambourine
55,Splash Cymbal,Splash Cymbal,Splash Cymbal,Splash Cymbal,Splash Cymbal,Splash Cymbal,Splash Cymbal,Splash Cymbal,Ride Bell,Ride Bell,Ride Bell,Ride Bell,Ride Bell,Ride Bell,Ride Bell,Ride Bell,Ride Bell,Timpani f,Req Dum,[88] Electric Kick1,Hyousigi,TR-909 Open Hi-Hat,Heart Beat,Reverse Closed Hi-hat,Reverse TR-808 Closed Hi-Hat,
56,Cowbell,Cowbell,Cowbell,Cowbell,TR-808 Cowbell,TR-808 Cowbell,TR-808 Cowbell,Cowbell,Tambourine,Tambourine,Shake Tambourine,CR-78 Tambourine,CR-78 Tambourine,Tambourine2,Tambourine2,Tambourine,Tambourine,Tambourine,Req Tik,[55] Electric Kick,Ohkawa,TR-707 Open Hi-Hat,Footsteps1,Reverse Gong,Reverse Jungle Hi-Hat,Cowbell
57,Crash Cymbal 2,Crash Cymbal2,Crash Cymbal2,Crash Cymbal 2,Crash Cymbal2,Crash Cymbal2,TR-909 Crash Cymbal,Crash Cymbal 2,Splash Cymbal,Splash Cymbal,Splash Cymbal,Splash Cymbal,Splash Cymbal,Splash Cymbal,Splash Cymbal,Splash Cymbal,Splash Cymbal,Splash Cymbal,Tabla Te,[88] TR-808 Kick,High Kotsuzumi,TR-606 Open Hi-Hat,Footsteps2,Reverse Bell Tree,Reverse Tambourine2,
58,Vibra-slap,Vibra-slap,Vibra-slap,Vibra-slap,Vibra-slap,Vibra-slap,Vibra-slap,Vibra-slap,Cowbell,808 Cowbell,TR-808 Cowbell,CR-78 Cowbell,CR-78 Cowbell,TR-808 Cowbell,TR-808 Cowbell,Cowbell,Cowbell,Cowbell,Tabla Na,[88] TR-909 Kick,Low Kotsuzumi,[88] TR-808 Open Hi-Hat,Applause,Reverse Guiro,Reverse Shake Tambourine,
59,Ride Cymbal 2,Ride Cymbal2,[RND] Ride Cymbal2,Ride Cymbal 2,Ride Cymbal2,Ride Cymbal2,Ride Cymbal2,Ride Cymbal 2,Crash Cymbal 2,Crash Cymbal 2,Crash Cymbal2,TR-909 Crash Cymbal,TR-909 Crash Cymbal,Crash Cymbal2,Crash Cymbal2,Crash Cymbal 2,Crash Cymbal 2,Concert Cymbal2,Tabla Tun,[88] Dance Kick,Yyoo Dude,TR-808 Open Hi-Hat,Door Creaking,Reverse Bendir,Reverse TR-808 Open Hi-Hat,
60,High Bongo,High Bongo,High Bongo,High Bongo,High Bongo,High Bongo,CR-78 High Bongo,High Bongo,Vibra-slap,Vibra-slap,Vibra-slap,Vibra-slap,Vibra-slap,Vibra-slap,Vibra-slap,Vibra-slap,Vibra-slap,Vibra-slap,Tabla Ge,[88] Standard1 Snare1,Buk,CR-78 Open Hi-Hat,Door,Reverse Gun Shot,Reverse TR-707 Open Hi-Hat,High Bongo
61,Low Bongo,Low Bongo,Low Bongo,Low Bongo,Low Bongo,Low Bongo,CR-78 Low Bongo,Low Bongo,Ride Cymbal 2,Ride Cymbal 2,Ride Cymbal2,Ride Cymbal Edge,Ride Cymbal Edge,Ride Cymbal Edge,Ride Cymbal Edge,Ride Cymbal 2,Ride Cymbal 2,Concert Cymbal1,Tabla Ge Hi,[88] Standard1 Snare2,Buk Rim,Crash Cymbal1,Scratch,Reverse Scratch,Reverse Open Hi-Hat,Low Bongo
62,Mute High Conga,Mute High Conga,Mute High Conga,Mute High Conga,Mute High Conga,Mute High Conga,TR-808 Mute High Conga,Mute High Conga,High Bongo,High Bongo,High Bongo,CR-78 High Bongo,CR-78 High Bongo,High Bongo,High Bongo,High Bongo,High Bongo,High Bongo,Talking Drum,[88] Standard2 Snare1,Gengari p,Crash Cymbal2,Wind Chimes,Reverse Laser Gun,Reverse TR-606 Open Hi-Hat,Mute High Conga
63,Open High Conga,Open High Conga,Open High Conga,Open High Conga,Open High Conga,Open High Conga,TR-808 Open High Conga,Open High Conga,Low Bongo,Low Bongo,Low Bongo,CR-78 Low Bongo,CR-78 Low Bongo,Low Bongo,Low Bongo,Low Bongo,Low Bongo,Low Bongo,Bend Talking Drum,[88] Standard2 Snare2,Gengari Mute Low,Crash Cymbal3,Car Engine,Key Click,Reverse Hu Yin Luo,High Conga
64,Low Conga,Open Low Conga,Open Low Conga,Low Conga,Open Low Conga,Open Low Conga,TR-808 Open Low Conga,Low Conga,Mute High Conga,808 High Conga,Mute High Conga,TR-808 Mute High Conga,TR-808 Mute High Conga,Mute High Conga,Mute High Conga,Mute High Conga,Mute High Conga,Mute High Conga,Caxixi,[55] Snare Drum2,Gengari f,Brush Crash Cymbal,Car Stop,Techno Trip,Reverse TR-707 Crash Cymbal,Low Conga
65,High Timbale,High Timbale,High Timbale,High Timbale,High Timbale,High Timbale,High Timbale,High Timbale,Open High Conga,808 Mid Conga,Open High Conga,TR-808 Open High Conga,TR-808 Open High Conga,Open High Conga,Open High Conga,Open High Conga,Open High Conga,Open High Conga,Djembe,[55] Concert Snare,Gengari Mute High,Hard Crash Cymbal,Car Passing,Pop Drop,Voice One,High Timbale
66,Low Timbale,Low Timbale,Low Timbale,Low Timbale,Low Timbale,Low Timbale,Low Timbale,Low Timbale,Low Conga,808 Low Conga,Open Low Conga,TR-808 Open Low Conga,TR-808 Open Low Conga,Open Low Conga,Open Low Conga,Low Conga,Low Conga,Open Low Conga,Djembe Rim,[88] Jazz Snare1,Gengari Samll,TR-909 Crash Cymbal,Car Crash,Woody Slap,Reverse Voice One,Low Timbale
67,High Agogo,High Agogo,High Agogo,High Agogo,High Agogo,High Agogo,High Agogo,High Agogo,High Timbale,High Timbale,High Timbale,High Timbale,High Timbale,High Timbale,High Timbale,High Timbale,High Timbale,High Timbale,Timbales Low,[88] Jazz Snare2,Jang-Gu Che,TR-808 Crash Cymbal,Siren,Distortion Kick,Voice Two,High Agogo
68,Low Agogo,Low Agogo,Low Agogo,Low Agogo,Low Agogo,Low Agogo,Low Agogo,Low Agogo,Low Timbale,Low Timbale,Low Timbale,Low Timbale,Low Timbale,Low Timbale,Low Timbale,Low Timbale,Low Timbale,Low Timbale,Timbales Paila,[88] Room Snare1,Jang-Gu Kun,Mute Crash Cymbal1,Train,Syn.Drop,Reverse Voice Two,Low Agogo
69,Cabasa,Cabasa,Cabasa,Cabasa,Cabasa,Cabasa,Cabasa,Cabasa,High Agogo,High Agogo,High Agogo,High Agogo,High Agogo,High Agogo,High Agogo,High Agogo,High Agogo,High Agogo,Timbales High,[88] Room Snare2,Jang-Gu Rim,Mute Crash Cymbal2,Jetplane,Reverse High Q,Voice Three,Cabasa
70,Maracas,Maracas,Maracas,Maracas,TR-808 Maracas,TR-808 Maracas,TR-808 Maracas,Maracas,Low Agogo,Low Agogo,Low Agogo,Low Agogo,Low Agogo,Low Agogo,Low Agogo,Low Agogo,Low Agogo,Low Agogo,Cowbell,[88] Power Snare1,Jing p,Reverse Crash Cymbal1,Helicopter,Pipe,Reverse Voice Three,Maracas
71,Short Hi Whistle,Short High Whisle,Short High Whisle,Short Hi Whistle,Short High Whisle,Short High Whisle,Short High Whisle,Short Hi Whistle,Cabasa,Cabasa,Cabasa,Cabasa,Cabasa,Cabasa,Cabasa,Cabasa,Cabasa,Cabasa,High Bongo,[88] Power Snare2,Jing f,Reverse Crash Cymbal2,Starship,Ice Block,Voice Tah,Short Whistle
72,Long Low Whistle,Long Low Whisle,Long Low Whisle,Long Low Whistle,Long Low Whisle,Long Low Whisle,Long Low Whisle,Long Low Whistle,Maracas,808 Maracas,Maracas,CR-78 Maracas,CR-78 Maracas,TR-808 Maracas,TR-808 Maracas,Maracas,Maracas,Maracas,Low Bongo,[55] Gated Snare,Jing Mute,Reverse Crash Cymbal3,Gun Shot,Digital Tambourine,Reverse Voice Tah,Long Whistle
73,Short Guiro,Short Guiro,Short Guiro,Short Guiro,Short Guiro,Short Guiro,Short Guiro,Short Guiro,Short Hi Whistle,Short Hi Whistle,Short High Whisle,Short Hi Whistle,Short High Whisle,Short High Whisle,Short High Whisle,Short Hi Whistle,Short Hi Whistle,Short High Whisle,Mute High Conga,[88] Dance Snare1,Asian Gong1,Reverse TR-909 Crash Cymbal,Machine Gun,Alias,Voice Ou,Quijada
74,Long Guiro,Long Guiro,Long Guiro,Long Guiro,CR-78 Guiro,CR-78 Guiro,CR-78 Guiro,Long Guiro,Long Low Whistle,Long Low Whistle,Long Low Whisle,Long Low Whistle,Long Low Whisle,Long Low Whisle,Long Low Whisle,Long Low Whistle,Long Low Whistle,Long Low Whisle,Open High Conga,[88] Dance Snare2,Big Gong,[55] Splash Cymbal,Laser Gun,Modulated Bell,Voice Au,
75,Claves,Claves,Claves,Claves,TR-808 Claves,TR-808 Claves,TR-808 Claves,Claves,Short Guiro,Short Guiro,Short Guiro,Short Guiro,Short Guiro,Short Guiro,Short Guiro,Short Guiro,Short Guiro,Short Guiro,Mute Low Conga,[88] Disco Snare,Small Gong,Splash Cymbal,Explosion,Spark,Voice Whey,Claves
76,High Wood Block,High Wood Block,High Wood Block,High Wood Block,High Wood Block,High Wood Block,High Wood Block,High Wood Block,Long Guiro,Long Guiro,Long Guiro,CR-78 Guiro,CR-78 Guiro,Long Guiro,CR-78 Guiro,Long Guiro,Long Guiro,Long Guiro,Conga Slap,[88] Electric Snare2,Pai Ban,[88] Ride Bell,Dog,Metalic Percussion,Frog Vpoce,Laughing
77,Low Wood Block,Low Wood Block,Low Wood Block,Low Wood Block,Low Wood Block,Low Wood Block,Low Wood Block,Low Wood Block,Claves,808 Claves,Claves,CR-78 Claves,CR-78 Claves,Claves,TR-808 Claves,Claves,Claves,Claves,Open Low Conga,[88] House Snare,Ban Gu,[88] Brush Ride Bell,Horse-Gallop,Velocity Noise FX,Reverse Yyoo Dude,Screaming
78,Mute Cuica,Mute Cuica,Mute Cuica,Mute Cuica,High Hoo,High Hoo,High Hoo,Mute Cuica,High Wood Block,High Wood Block,High Wood Block,High Wood Block,High Wood Block,High Wood Block,High Wood Block,High Wood Block,High Wood Block,High Wood Block,Conga Slide,[55] Electric Snare1,Tang Gu,[88] Ride Cymbal1,Birds,Stereo Noise Clap,Douby,Punch
79,Open Cuica,Open Cuica,Open Cuica,Open Cuica,Low Hoo,Low Hoo,Low Hoo,Open Cuica,Low Wood Block,Low Wood Block,Low Wood Block,Low Wood Block,Low Wood Block,Low Wood Block,Low Wood Block,Low Wood Block,Low Wood Block,Low Wood Block,Mute Pandiero,[88] Electric Snare3,Tnag Gu Mute,[88] Ride Cymbal2,Rain,Swish,Reverse Douby,Heartbeat
80,Mute Triangle,Mute Triangle,Mute Triangle,Mute Triangle,Electric Mute Triangle,Electric Mute Triangle,Electric Mute Triangle,Mute Triangle,Mute Cuica,Mute Cuica,High Hoo,High Hoo,High Hoo,High Hoo,High Hoo,Mute Cuica,Mute Cuica,Mute Cuica,Open Pandiero,[88] TR-808 Snare1,Shou Luo,[88] Brush Ride Cymbal,Thunder,Slappy,Baert High,Footsteps 1
81,Open Triangle,Open Triangle,Open Triangle,Open Triangle,Electric Open Triangle,Electric Open Triangle,Electric Open Triangle,Open Triangle,Open Cuica,Open Cuica,Low Hoo,Low Hoo,Low Hoo,Low Hoo,Low Hoo,Open Cuica,Open Cuica,Open Cuica,Open Surdo,[88] TR-808 Snare2,Bend Gong,Ride Cymbal Low Inner,Wind,Voice Ou,Baert Low,Footsteps 2
82,Shaker,Shaker,Shaker,Shaker,TR-626 Shaker,TR-626 Shaker,TR-626 Shaker,Shaker,Mute Triangle,Mute Triangle,Electric Mute Triangle,CR-78 Low Beat,CR-78 Low Beat,Electric Mute Triangle,Electric Mute Triangle,Mute Triangle,Mute Triangle,Mute Triangle,Mute Surdo,[88] TR-909 Snare1,Hu Yin Luo Low,Ride Cymbal Mid Inner,Seashore,Voice Au,Bounce,Applause
83,Jingle Bell,Jingle Bell,Jingle Bell,Jingle Bell,Jingle Bell,Jingle Bell,Jingle Bell,Jingle Bell,Open Triangle,Open Triangle,Electric Open Triangle,CR-78 High Beat,CR-78 High Beat,Electric Open Triangle,Electric Open Triangle,Open Triangle,Open Triangle,Open Triangle,Tamborim,[88] TR-909 Snare2,Hu Yin Luo Mid,Ride Cymbal High Inner,Stream,Hoo,Reverse Bounce,Creaking
84,Belltree,Bar Chimes,Bell Tree,Belltree,Bell Tree,Bell Tree,Bell Tree,Belltree,Shaker,Shaker,TR-626 Shaker,TR-626 Shaker,TR-626 Shaker,TR-626 Shaker,TR-626 Shaker,Shaker,Shaker,Shaker,High Agogo,[88] Brush Tap1,Hu Yin Luo Mid Mute,Ride Cymbal Low Edge,Bubble,Tape Stop1,Dstortion Knock,Door
85,Castanets,Castanets,Castanets,Castanets,Castanets,Castanets,Castanets,Castanets,Jingle Bell,Jingle Bell,Jingle Bell,Jingle Bell,Jingle Bell,Jingle Bell,Jingle Bell,Jingle Bell,Jingle Bell,Jingle Bell,Low Agogo,[88] Brush Tap2,Hu Yin Luo High,Ride Cymbal Mid Edge,Kitty,Tape Stop2,Guitar Slide,Scratch
86,Mute Surdo,Mute Surdo,Mute Surdo,Mute Surdo,Mute Surdo,Mute Surdo,Mute Surdo,Mute Surdo,Belltree,Belltree,Bell Tree,Belltree,Bell Tree,Bell Tree,Bell Tree,Belltree,Belltree,Bell Tree,Shaker,[88] Brush Slap1,Hu Yin Luo High Mute,Ride Cymbal High Edge,Bird2,Missile,Sub Marine,Windchime
87,Open Surdo,Open Surdo,Open Surdo,Open Surdo,Open Surdo,Open Surdo,Open Surdo,Open Surdo,Castanets,Castanets,Castanets,Castanets,Castanets,Castanets,Castanets,Castanets,Castanets,Castanets,High Whistle,[88] Brush Slap2,Nao Bo,TR-606 Ride Cymbal,Growl,Space Bird,Noise Attack,Engine
88,Applaus2,Applaus2,Applaus2,Applaus2,Small Club1,Small Club1,Applaus2,Applaus2,Mute Surdo,Mute Surdo,Mute Surdo,Mute Surdo,Mute Surdo,Mute Surdo,Mute Surdo,Mute Surdo,Mute Surdo,Mute Surdo,Low Whistle,[88] Brush Slap3,Xiao Bo,TR-808 Ride Cymbal,Applause2,Flying Monster,Space Worms,Car-Stop
89,,,,,,,,,Open Surdo,Open Surdo,Open Surdo,Open Surdo,Open Surdo,Open Surdo,Open Surdo,Open Surdo,Open Surdo,Open Surdo,Mute Cuica,[88] Brush Swirl1,,Chinese Cymbal1,Telephone1,,Emergency!,Car-Pass
90,,,,,,,,,Small Club1,Small Club1,Small Club1,Small Club1,Small Club1,Small Club1,Applaus2,Applause,Applause,Applause,Open Cuica,[88] Brush Swirl2,,Chinese Cymbal2,Telephone2,,Calculating...,Crash
91,,,,,,,,,,,,,,,,,,,Mute Triangle,[88] Brush Long Swirl,,[55] Hand Clap,Small Club1,,Saw LFO Saw,Siren
92,,,,,,,,,,,,,,,,,,,Open Triangle,Standard1 Snare1,,[88] Hand Clap2,Small Club2,,,Train
93,,,,,,,,,,,,,,,,,,,Short Guiro,Standard1 Snare2,,[88] Hand Clap,Applause Wave,,,Jet
94,,,,,,,,,,,,,,,,,,,Long Guiro,Standard Snare3,,Hand Clap,Eruption,,,Helicopter
95,,,,,,,,,,,,,,,,,,,Cabasa Up,Rap Snare,,Hand Clap2,Big Shot,,,Starship
96,,,,,,,,,,,,,,,,,,,Cabasa Down,Hip-Hop Snare2,,TR-707 Hand Clap,Percussion Bang,,,Pistol
97,[88] Standard1 Snare1,[88] Standard1 Snare1,[88] Standard1 Snare1,[88] Standard1 Snare1,Techno Hit,Techno Hit,Techno Hit,[88] Standard1 Snare1,Techno Hit,Techno Hit,Techno Hit,Techno Hit,Techno Hit,Techno Hit,Techno Hit,[88] Standard1 Snare1,[88] Standard1 Snare1,Applaus2,Claves,Jungle Snare1,,,,,,Machine Gun
98,[88] Standard1 Snare2,[88] Standard1 Snare2,[88] Standard1 Snare2,[88] Standard1 Snare2,Philly Hit,Philly Hit,Philly Hit,[88] Standard1 Snare2,Philly Hit,Philly Hit,Philly Hit,Philly Hit,Philly Hit,Philly Hit,Philly Hit,[88] Standard1 Snare2,[88] Standard1 Snare2,Small Club1,High Wood Block,Jungle Snare2,,,,,,Lasergun
99,[88] Standard2 Snare1,[88] Standard2 Snare1,[88] Standard2 Snare1,[88] Standard2 Snare1,Shock Wave,Shock Wave,Shock Wave,[88] Standard2 Snare1,Shock Wave,Shock Wave,Shock Wave,Shock Wave,Shock Wave,Shock Wave,Shock Wave,[88] Standard2 Snare1,[88] Standard2 Snare1,[55] Timpani D#,Low Wood Block,Techno Snare1,,,,,,Explosion
100,[88] Standard2 Snare2,[88] Standard2 Snare2,[88] Standard2 Snare2,[88] Standard2 Snare2,Lo-Fi Rave,Lo-Fi Rave,Lo-Fi Rave,[88] Standard2 Snare2,Lo-Fi Rave,Lo-Fi Rave,Lo-Fi Rave,Lo-Fi Rave,Lo-Fi Rave,Lo-Fi Rave,Lo-Fi Rave,[88] Brush Tap1,[88] Standard2 Snare2,[55] Timpani E,,Techno Snare2,,,,,,Dog
101,[55] Snare Drum2,[55] Snare Drum2,[55] Snare Drum2,[55] Snare Drum2,Bam Hit,Bam Hit,Bam Hit,[55] Snare Drum2,Bam Hit,Bam Hit,Bam Hit,Bam Hit,Bam Hit,Bam Hit,Bam Hit,[88] Brush Tap2,[55] Snare Drum2,[55] Timpani F,,House Snare2,,,,,,Horse
102,Standard1 Snare1,Standard1 Snare1,Standard1 Snare1,Standard1 Snare1,Bim Hit,Bim Hit,Bim Hit,Standard1 Snare1,Bim Hit,Bim Hit,Bim Hit,Bim Hit,Bim Hit,Bim Hit,Bim Hit,[88] Brush Slap1,Standard1 Snare1,[55] Timpani F#,,CR-78 Snare1,,,,,,Birds
103,Standard1 Snare2,Standard1 Snare2,Standard1 Snare2,Standard1 Snare2,Tape Rewind,Tape Rewind,Tape Rewind,Standard1 Snare2,Tape Rewind,Tape Rewind,Tape Rewind,Tape Rewind,Tape Rewind,Tape Rewind,Tape Rewind,[88] Brush Slap2,Standard1 Snare2,[55] Timpani G,,CR-78 Snare2,,,,,,Rain
104,Standard Snare3,Standard Snare3,Standard Snare3,Standard Snare3,Phonograph Noise,Phonograph Noise,Phonograph Noise,Standard Snare3,Phonograph Noise,Phonograph Noise,Phonograph Noise,Phonograph Noise,Phonograph Noise,Phonograph Noise,Phonograph Noise,[88] Brush Slap3,Standard Snare3,[55] Timpani G#,,TR-606 Snare1,,,,,,Thunder
105,[88] Jazz Snare1,[88] Jazz Snare1,[88] Jazz Snare1,[88] Jazz Snare1,[88] Power Snare1,[88] Power Snare1,[88] Power Snare1,[88] Jazz Snare1,[88] Power Snare1,[88] Power Snare1,[88] Power Snare1,[88] Power Snare1,[88] Power Snare1,[88] Power Snare1,[88] Power Snare1,[88] Brush Swirl1,[88] Jazz Snare1,[55] Timpani A,,TR-606 Snare2,,,,,,Wind
106,[88] Jazz Snare2,[88] Jazz Snare2,[88] Jazz Snare2,[88] Jazz Snare2,[88] Dance Snare1,[88] Dance Snare1,[88] Dance Snare1,[88] Jazz Snare2,[88] Dance Snare1,[88] Dance Snare1,[88] Dance Snare1,[88] Dance Snare1,[88] Dance Snare1,[88] Dance Snare1,[88] Dance Snare1,[88] Brush Swirl2,[88] Jazz Snare2,[55] Timpani A#,,TR-707 Snare1,,,,,,Waves
107,[88] Room Snare1,[88] Room Snare1,[88] Room Snare1,[88] Room Snare1,[88] Dance Snare2,[88] Dance Snare2,[88] Dance Snare2,[88] Room Snare1,[88] Dance Snare2,[88] Dance Snare2,[88] Dance Snare2,[88] Dance Snare2,[88] Dance Snare2,[88] Dance Snare2,[88] Dance Snare2,[88] Brush Long Swirl,[88] Room Snare1,[55] Timpani B,,TR-707 Snare2,,,,,,Stream
108,[88] Room Snare2,[88] Room Snare2,[88] Room Snare2,[88] Room Snare2,[88] Disco Snare,[88] Disco Snare,[88] Disco Snare,[88] Room Snare2,[88] Disco Snare,[88] Disco Snare,[88] Disco Snare,[88] Disco Snare,[88] Disco Snare,[88] Disco Snare,[88] Disco Snare,[88] Jazz Snare1,[88] Room Snare2,[55] Timpani c,,Standard3 Snare2,,,,,,Bubble
109,[88] Power Snare1,[88] Power Snare1,[88] Power Snare1,[88] Power Snare1,[88] Electric Snare2,[88] Electric Snare2,[88] Electric Snare2,[88] Power Snare1,[88] Electric Snare2,[88] Electric Snare2,[88] Electric Snare2,[88] Electric Snare2,[88] Electric Snare2,[88] Electric Snare2,[88] Electric Snare2,[88] Jazz Snare2,[88] Power Snare1,[55] Timpani c#,,TR-808 Snare2,,,,,,
110,[88] Power Snare2,[88] Power Snare2,[88] Power Snare2,[88] Power Snare2,[55] Electric Snare,[55] Electric Snare,[55] Electric Snare,[88] Power Snare2,[55] Electric Snare,[55] Electric Snare,[55] Electric Snare,[55] Electric Snare,[55] Electric Snare,[55] Electric Snare,[55] Electric Snare,[88] Standard 1 Snare 1,[88] Power Snare2,[55] Timpani d,,TR-909 Snare1,,,,,,
111,[55] Gated Snare,[55] Gated Snare,[55] Gated Snare,[55] Gated Snare,[88] Electric Snare3,[88] Electric Snare3,[88] Electric Snare3,[55] Gated Snare,[88] Electric Snare3,[88] Electric Snare3,[88] Electric Snare3,[88] Electric Snare3,[88] Electric Snare3,[88] Electric Snare3,[88] Electric Snare3,[88] Standard 1 Snare 2,[55] Gated Snare,[55] Timpani d#,,TR-909 Snare2,,,,,,
112,[88] Dance Snare1,[88] Dance Snare1,[88] Dance Snare1,[88] Dance Snare1,TR-606 Snare,TR-606 Snare,TR-606 Snare,[88] Dance Snare1,TR-606 Snare,TR-606 Snare,TR-606 Snare,TR-606 Snare,TR-606 Snare,TR-606 Snare,TR-606 Snare,[88] Standard 2 Snare 1,[88] Dance Snare1,[55] Timpani e,,,,,,,,
113,[88] Dance Snare2,[88] Dance Snare2,[88] Dance Snare2,[88] Dance Snare2,TR-707 Snare,TR-707 Snare,TR-707 Snare,[88] Dance Snare2,TR-707 Snare,TR-707 Snare,TR-707 Snare,TR-707 Snare,TR-707 Snare,TR-707 Snare,TR-707 Snare,[88] Standard 2 Snare 2,[88] Dance Snare2,[55] Timpani f,,,,,,,,
114,[88] Disco Snare,[88] Disco Snare,[88] Disco Snare,[88] Disco Snare,[88] TR-808 Snare1,[88] TR-808 Snare1,[88] TR-808 Snare1,[88] Disco Snare,[88] TR-808 Snare1,[88] TR-808 Snare1,[88] TR-808 Snare1,[88] TR-808 Snare1,[88] TR-808 Snare1,[88] TR-808 Snare1,[88] TR-808 Snare1,[55] Snare Drum2,[88] Disco Snare,,,,,,,,,
115,[88] Electric Snare2,[88] Electric Snare2,[88] Electric Snare2,[88] Electric Snare2,[88] TR-808 Snare2,[88] TR-808 Snare2,[88] TR-808 Snare2,[88] Electric Snare2,[88] TR-808 Snare2,[88] TR-808 Snare2,[88] TR-808 Snare2,[88] TR-808 Snare2,[88] TR-808 Snare2,[88] TR-808 Snare2,[88] TR-808 Snare2,Standard1 Snare1,[88] Electric Snare2,,,,,,,,,
116,[55] Electric Snare,[55] Electric Snare,[55] Electric Snare,[55] Electric Snare,TR-808 Snare2,TR-808 Snare2,TR-808 Snare2,[55] Electric Snare,TR-808 Snare2,TR-808 Snare2,TR-808 Snare2,TR-808 Snare2,TR-808 Snare2,TR-808 Snare2,TR-808 Snare2,Standard1 Snare2,[55] Electric Snare,,,,,,,,,
117,[88] Electric Snare 3,[88] Electric Snare 3,[88] Electric Snare 3,[88] Electric Snare 3,[88] TR-909 Snare1,[88] TR-909 Snare1,[88] TR-909 Snare1,[88] Electric Snare 3,[88] TR-909 Snare1,[88] TR-909 Snare1,[88] TR-909 Snare1,[88] TR-909 Snare1,[88] TR-909 Snare1,[88] TR-909 Snare1,[88] TR-909 Snare1,Standard Snare3,[88] Electric Snare 3,,,,,,,,,
118,TR-707 Snare,TR-707 Snare,TR-707 Snare,TR-707 Snare,[88] TR-909 Snare2,[88] TR-909 Snare2,[88] TR-909 Snare2,TR-707 Snare,[88] TR-909 Snare2,[88] TR-909 Snare2,[88] TR-909 Snare2,[88] TR-909 Snare2,[88] TR-909 Snare2,[88] TR-909 Snare2,[88] TR-909 Snare2,[88] Room Snare1,TR-707 Snare,,,,,,,,,
119,[88] TR-808 Snare1,[88] TR-808 Snare1,[88] TR-808 Snare1,[88] TR-808 Snare1,TR-909 Snare1,TR-909 Snare1,TR-909 Snare1,[88] TR-808 Snare1,TR-909 Snare1,TR-909 Snare1,TR-909 Snare1,TR-909 Snare1,TR-909 Snare1,TR-909 Snare1,TR-909 Snare1,[88] Room Snare2,[88] TR-808 Snare1,,,,,,,,,
120,[88] TR-808 Snare2,[88] TR-808 Snare2,[88] TR-808 Snare2,[88] TR-808 Snare2,TR-909 Snare2,TR-909 Snare2,TR-909 Snare2,[88] TR-808 Snare2,TR-909 Snare2,TR-909 Snare2,TR-909 Snare2,TR-909 Snare2,TR-909 Snare2,TR-909 Snare2,TR-909 Snare2,[88] Power Snare1,[88] TR-808 Snare2,,,,,,,,,
121,[88] TR-909 Snare1,[88] TR-909 Snare1,[88] TR-909 Snare1,[88] TR-909 Snare1,Rap Snare,Rap Snare,Rap Snare,[88] TR-909 Snare1,Rap Snare,Rap Snare,Rap Snare,Rap Snare,Rap Snare,Rap Snare,Rap Snare,[88] Power Snare2,[88] TR-909 Snare1,,,,,,,,,
122,[88] TR-909 Snare2,[88] TR-909 Snare2,[88] TR-909 Snare2,[88] TR-909 Snare2,Jungle Snare1,Jungle Snare1,Jungle Snare1,[88] TR-909 Snare2,Jungle Snare1,Jungle Snare1,Jungle Snare1,Jungle Snare1,Jungle Snare1,Jungle Snare1,Jungle Snare1,[88] Gated Snare,[88] TR-909 Snare2,,,,,,,,,
123,Rap Snare,Rap Snare,Rap Snare,Rap Snare,House Snare1,House Snare1,House Snare1,Rap Snare,House Snare1,House Snare1,House Snare1,House Snare1,House Snare1,House Snare1,House Snare1,[88] Dance Snare1,Rap Snare,,,,,,,,,
124,Jungle Snare1,Jungle Snare1,Jungle Snare1,Jungle Snare1,[88] House Snare,[88] House Snare,[88] House Snare,Jungle Snare1,[88] House Snare,[88] House Snare,[88] House Snare,[88] House Snare,[88] House Snare,[88] House Snare,[88] House Snare,[88] Dance Snare2,Jungle Snare1,,,,,,,,,
125,House Snare1,House Snare1,House Snare1,House Snare1,House Snare2,House Snare2,House Snare2,House Snare1,House Snare2,House Snare2,House Snare2,House Snare2,House Snare2,House Snare2,House Snare2,[88] Disco Snare,House Snare1,,,,,,,,,
126,[88] House Snare,[88] House Snare,[88] House Snare,[88] House Snare,Voice Tah,Voice Tah,Voice Tah,[88] House Snare,Voice Tah,Voice Tah,Voice Tah,Voice Tah,Voice Tah,Voice Tah,Voice Tah,[88] Electric Snare2,[88] House Snare,,,,,,,,,
127,House Snare2,House Snare2,House Snare2,House Snare2,[88] Slappy,[88] Slappy,[88] Slappy,House Snare2,[88] Slappy,[88] Slappy,[88] Slappy,[88] Slappy,[88] Slappy,[88] Slappy,[88] Slappy,[88] Electric Snare3,House Snare2,,,,,,,,,
