PC,CC00,SC88Pro Map,Voices,SC88 Map,Voices,SC55 Map,Voices,
1,0,Piano 1,1,Piano 1,1,Piano 1,1,
,8,Piano 1w,1,Piano 1w,1,Piano 1w,1,
,16,European Pf,1,Piano 1d,1,Piano 1d,1,
,24,Piano + Str.,2,---,　,---,　,
2,0,Piano 2,2,Piano 2,2,Piano 2,2,
,8,Piano 2w,2,Piano 2w,1,Piano 2w,1,
,16,Dance Piano,2,---,　,---,　,
3,0,Piano 3,2,Piano 3,1,Piano 3,1,
,1,EG+Rhodes 1,2,EG+Rhodes 1,2,---,　,
,2,EG+Rhodes 2,2(88),EG+Rhodes 2,2,---,　,
,8,Piano 3w,2,Piano 3w,1,Piano 3w,1,
4,0,Honky-tonk,2,Honky-tonk,2,Honky-tonk,2,
,8,Honky-tonk 2,2,Old Upright,2,HonkyTonk w,2,
5,0,E.Piano 1,1,E.Piano 1,2,E.Piano 1,1,
,8,St.Soft EP,2(88),St.Soft EP,2,Detuned EP1,2,
,9,Cho. E.Piano,2,---,　,---,　,
,10,SilentRhodes,2,---,　,---,　,
,16,FM+SA EP,2(88),FM+SA EP,2,E.Piano 1v,2,
,17,Dist E.Piano,2,---,　,---,　,
,24,Wurly,2,60'sE.Piano,1,60s E.Piano,1,
,25,Hard Rhodes,2(88),Hard Rhodes,2,---,　,
,26,MellowRhodes,2(88),MellowRhodes,2,---,　,
6,0,E.Piano 2,2(88),E.Piano 2,2,E.Piano 2,1,
,8,Detuned EP 2,2(88),Detuned EP2,2,Detuned EP2,2,
,16,St.FM EP,2(88),St.FM EP,2,E.Piano 2v,2,
,24,Hard FM EP,2(88),Hard FM EP,2,---,　,
7,0,Harpsichord,1(88),Harpsichord,1,Harpsichord,1,
,1,Harpsichord2,2,---,　,---,　,
,8,Coupled Hps.,2(55),Coupled Hps,2(55),Coupled Hps,2,
,16,Harpsi.w,1(88),Harpsi.w,1,Harpsi.w,1,
,24,Harpsi.o,2(88),Harpsi.o,2,Harpsi.o,2,
,32,Synth Harpsi,2,---,　,---,　,  
8,0,Clav.,1(88),Clav.,1,Clav.,1,
,8,Comp Clav.,1,---,　,---,　,
,16,Reso Clav.,1,---,　,---,　,
,24,Clav.o,2,---,　,---,　,
,32,Analog Clav.,2,---,　,---,　,
,33,JP8 Clav. 1,1,---,　,---,　,
,35,JP8 Clav. 2,1,---,　,---,　,
9,0,Celesta,1(55),Celesta,1(55),Celesta,1,
,1,Pop Celesta,2,---,　,---,　,
10,0,Glockenspiel,1(88),Glocknspiel,1,Glockenspl,1,
11,0,Music Box,1(88),Music Box,1,Music Box,1,
12,0,Vibraphone,1,Vibraphone,1,Vibraphone,1,
,1,Pop Vibe.,2,Hard Vibe,2,---,　,
,8,Vibraphone w,1,Vib.w,1(55),Vib.w,1,
,9,Vibraphones,2,---,　,---,　,
13,0,Marimba,1(88),Marimba,1,Marimba,1,
,8,Marimba w,1(88),Marimba w,1,Marimba w,1,
,16,Barafon,1(88),Barafon,1,---,　,
,17,Barafon 2,1(88),Barafon 2,1,---,　,
,24,Log drum,1(88),Log drum,1,---,　,
14,0,Xylophone,1(88),Xylophone,1,Xylophone,1,
15,0,Tubular-bell,1(55),Tubularbell,1(55),Tubularbell,1,
,8,Church Bell,1(55),Church Bell,1(55),Church Bell,1,
,9,Carillon,1(55),Carillon,1(55),Carillon,1,
16,0,Santur,1(55),Santur,1(55),Santur,1,
,1,Santur 2,2(88),Santur 2,2,---,　,
,8,Cimbalom,2(88),Cimbalom,2,---,　,
,16,Zither 1,1,---,　,---,　,
,17,Zither 2,2,---,　,---,　,
,24,Dulcimer,2,---,　,---,　,
17,0,Organ 1,2,Organ 1,1,Organ 1,1,
,1,Organ 101,2,Organ 101,2,---,　,
,8,Trem. Organ,2,DetunedOr.1,2,Detuned Or1,2,
,9,Organ. o,2,Organ 109,2,---,　,
,16,60's Organ 1,1,60'sOrgan 1,1,60's Organ1,1,
,17,60's Organ 2,1,60'sOrgan 2,1,---,　,
,18,60's Organ 3,1,60'sOrgan 3,1,---,　,
,19,Farf Organ,1,---,　,---,　,
,24,Cheese Organ,1(88),CheeseOrgan,1,---,　,
,25,D-50 Organ,2,---,　,---,　,
,26,JUNO Organ,2,---,　,---,　,
,27,Hybrid Organ,2,---,　,---,　,
,28,VS Organ,2,---,　,---,　,
,29,Digi Church,2,---,　,---,　,
,32,70's E.Organ,2,Organ 4,1,Organ 4,2,
,33,Even Bar,2(88),Even Bar,2,---,　,
,40,Organ Bass,1(88),Organ Bass,1,---,　,
,48,5th Organ,2,---,　,---,　,
18,0,Organ 2,2,Organ 2,2,Organ 2,1,
,1,Jazz Organ,2,Organ 201,2,---,　,
,2,E.Organ 16+2,2,---,　,---,　,
,8,Chorus Or.2,2,DetunedOr.2,2,Detuned Or2,2,
,9,Octave Organ,2,---,　,---,　,
,32,Perc. Organ,2,Organ 5,2,Organ 5,2,
19,0,Organ 3,2(55),Organ 3,2(55),Organ 3,2,
,8,Rotary Org.,1(88),Rotary Org.,1,---,　,
,16,Rotary Org.S,1(88),RotaryOrg.S,1,---,　,
,17,Rock Organ 1,2,---,　,---,　,
,18,Rock Organ 2,2,---,　,---,　,
,24,Rotary Org.F,1(88),RotaryOrg.F,1,---,　,
20,0,Church Org.1,1(88),ChurchOrg.1,1,Church Org1,1,
,8,Church Org.2,2(88),ChurchOrg.2,2,Church Org2,2,
,16,Church Org.3,2(88),ChurchOrg.3,2,Church Org3,2,
,24,Organ Flute,1(88),Organ Flute,1,---,　,
,32,Trem.Flute,2(88),Trem.Flute,2,---,　,
,33,Theater Org.,2,---,　,---,　,
21,0,Reed Organ,1(55),Reed Organ,1(55),Reed Organ,1,
,8,Wind Organ,2,---,　,---,　,
22,0,Accordion Fr,1,AccordionFr,1,Accordion F,2,
,8,Accordion It,1,AccordionIt,2,Accordion I,2,
,9,Dist. Accord,2,---,　,---,　,
,16,Cho. Accord,2,---,　,---,　,
,24,Hard Accord,2,---,　,---,　,
,25,Soft Accord,2,---,　,---,　,
23,0,Harmonica,1,Harmonica,1,Harmonica,1,
,1,Harmonica 2,1,Harmonica 2,2,---,　,
24,0,Bandoneon,2,Bandoneon,1,Bandoneon,2,
,8,Bandoneon 2,2,---,　,---,　,
,16,Bandoneon 3,2,---,　,---,　,
25,0,Nylon-str.Gt,2,Nylonstr.Gt,1,Nylon Gt.,1,
,8,Ukulele,1(88),Ukulele,1,Ukulele,1,
,16,Nylon Gt.o,2,Nylon Gt.o,2,Nylon Gt.o,2,
,24,Velo Harmnix,1(88),VeloHarmnix,1,---,　,
,32,Nylon Gt 2,1,Nylon Gt.2,1,Nylon Gt.2,1,
,40,Lequint Gt.,1(88),Lequint Gt.,1,---,　,
26,0,Steel-str.Gt,1,Steelstr.Gt,1,Steel Gt.,1,
,8,12-str.Gt,2,12-str.Gt,2,12-str.Gt,2,
,9,Nylon+Steel,2,Nylon+Steel,2,---,　,
,16,Mandolin,2(88),Mandolin,2,Mandolin,1,
,17,Mandolin 2,2,---,　,---,　,
,18,MandolinTrem,2,---,　,---,　,
,32,Steel Gt.2,1(88),Steel Gt.2,1,---,　,
27,0,Jazz Gt.,1,Jazz Gt.,1(55),Jazz Gt.,1,
,1,Mellow Gt.,2(88),Mellow Gt.,2,---,　,
,8,Pedal Steel,1(88),Pedal Steel,1,Hawaiian Gt,1,
28,0,Clean Gt.,1,Clean Gt.,1,Clean Gt.,1,
,1,Clean Half,1,---,　,---,　,
,2,Open Hard 1,2,---,　,---,　,
,3,Open Hard 2,1,---,　,---,　,
,4,JC Clean Gt.,1,---,　,---,　,
,8,Chorus Gt.,2,Chorus Gt.,2,Chorus Gt.,2,
,9,JC Chorus Gt,2,---,　,---,　,
,16,TC FrontPick,1,---,　,---,　,
,17,TC Rear Pick,1,---,　,---,　,
,18,TC Clean ff,2,---,　,---,　,
,19,TC Clean 2:,2,---,　,---,　,
29,0,Muted Gt.,1,Muted Gt.,1,Muted Gt.,1,
,1,Muted Dis.Gt,1(88),MutedDis.Gt,1,---,　,
,2,TC Muted Gt.,2,---,　,---,　,
,8,Funk Pop,1(88),Funk Pop,1,Funk Gt.,1,
,16,Funk Gt.2,1(88),Funk Gt.2,1,Funk Gt.2,1,
30,0,OverdriveGt,2,OverdriveGt,1,OverdriveGt,1,
,1,Overdrive 2,2,---,　,---,　,
,2,Overdrive 3,2,---,　,---,　,
,3,More Drive,2,---,　,---,　,
,8,LP OverDrvGt,2,---,　,---,　,
,9,LP OverDrv:,2,---,　,---,　,
31,0,DistortionGt,2,DistortionGt,1,Dist.Gt.,1,
,1,Dist. Gt2:,2,Dist. Gt2,2,---,　,
,2,Dazed Guitar,2(88),DazedGuitar,2,---,　,
,3,Distortion:,2,---,　,---,　,
,4,Dist.Fast:,2,---,　,---,　,
,8,Feedback Gt.,2(88),FeedbackGt.,2,Feedback Gt,2,
,9,Feedback Gt2,2(88),FeedbackGt2,2,---,　,
,16,Power Guitar,2(88),PowerGuitar,2,---,　,
,17,Power Gt.2,2,Power Gt.2,2,---,　,
,18,5th Dist.,2(88),5th Dist.,2,---,　,
,24,Rock Rhythm,2(88),Rock Rhythm,2,---,　,
,25,Rock Rhythm2,2(88),RockRhythm2,2,---,　,
32,0,Gt.Harmonics,1(55),Gt.Harmonix,1(55),Gt.Harmonix,1,
,8,Gt. Feedback,1(55),Gt.Feedback,1(55),Gt.Feedback,1,
,9,Gt. Feedback2,2,---,　,---,　,
,16,Ac.Gt.Harmnx,1(88),Ac.Gt.Harm.,1,---,　,
,24,E.Bass Harm.,1,---,　,---,　,
33,0,Acoustic Bs.,1,AcousticBs.,2,Acoustic Bs,1,
,1,Rockabilly,2,---,　,---,　,
,8,Wild A.Bass,2,---,　,---,　,
,16,Bass + OHH,2,---,　,---,　,
34,0,Fingered Bs.,1,FingeredBs.,1,Fingered Bs,1,
,1,Fingered Bs2,2,FingeredBs2,2,---,　,
,2,Jazz Bass,1(88),Jazz Bass,1,---,　,
,3,Jazz Bass 2,2,---,　,---,　,
,4,Rock Bass,2,---,　,---,　,
,8,ChorusJazzBs,2,---,　,---,　,
,16,F.Bass/Harm.,1,---,　,---,　,
35,0,Picked Bass,1,Picked Bass,1,Picked Bass,1,
,1,Picked Bass2,2,---,　,---,　,
,2,Picked Bass3,2,---,　,---,　,
,3,Picked Bass4,2,---,　,---,　,
,8,Muted PickBs,1,MutePickBs.,1,---,　,
,16,P.Bass/Harm.,1,---,　,---,　,
36,0,Fretless Bs.,1(88),FretlessBs.,1,Fretless Bs,1,
,1,Fretless Bs2,2,FretlessBs2,2,---,　,
,2,Fretless Bs3,2(88),FretlessBs3,2,---,　,
,3,Fretless Bs4,2(88),FretlessBs4,2,---,　,
,4,Syn Fretless,2(88),SynFretless,2,---,　,
,5,Mr.Smooth,2(88),Mr.Smooth,2,---,　,
,8,Wood+FlessBs,2,---,　,---,　,
37,0,Slap Bass 1,1(88),Slap Bass 1,1,Slap Bass 1,1,
,1,Slap Pop,1,---,　,---,　,
,8,Reso Slap,1(88),Reso Slap,1,---,　,
,9,Unison Slap,2,---,　,---,　,
38,0,Slap Bass 2,2(88),Slap Bass 2,2,Slap Bass 2,1,
,8,FM Slap,2,---,　,---,　,
39,0,Synth Bass 1,2(88),SynthBass 1,2,Syn.Bass 1,1,
,1,SynthBass101,1(55),Syn.Bass101,1(55),Syn.Bass101,1,
,2,CS Bass,2,---,　,---,　,
,3,JP-4 Bass,1,---,　,---,　,
,4,JP-8 Bass,2,---,　,---,　,
,5,P5 Bass,1,---,　,---,　,
,6,JPMG Bass,2,---,　,---,　,
,8,Acid Bass,1(88),Acid Bass,1,Syn.Bass 3,1,
,9,TB303 Bass,1(88),TB303 Bass,1,---,　,
,10,Tekno Bass,2(88),Tekno Bass,2,---,　,
,11,TB303 Bass 2,1,---,　,---,　,
,12,Kicked TB303,2,---,　,---,　,
,13,TB303 Saw Bs,1,---,　,---,　,
,14,Rubber303 Bs,1,---,　,---,　,
,15,Reso 303 Bs,1,---,　,---,　,
,16,Reso SH Bass,1(88),Reso SHBass,1,---,　,
,17,303 Sqr Bs,1,---,　,---,　,
,18,TB303 DistBs,1,---,　,---,　,
,24,Arpeggio Bs,1,---,　,---,　,
40,0,Synth Bass 2,2(88),SynthBass 2,2,Syn.Bass 2,2,
,1,SynthBass201,2(88),Syn.Bass201,2,---,　,
,2,Modular Bass,2(88),ModularBass,2,---,　,
,3,Seq Bass,2(88),Seq Bass,2,---,　,
,4,MG Bass,1,---,　,---,　,
,5,Mg Oct Bass1,2,---,　,---,　,
,6,MG Oct Bass2,2,---,　,---,　,
,7,MG Blip Bs:,2,---,　,---,　,
,8,Beef FM Bass,2(88),Beef FMBass,2,Syn.Bass 4,2,
,9,Dly Bass,2,X Wire Bass,2,---,　,
,10,X Wire Bass,2(88),---,　,---,　,
,11,WireStr Bass,2,---,　,---,　,
,12,Blip Bass:,2,---,　,---,　,
,13,RubberBass 1,2,---,　,---,　,
,16,RubberBass 2,2,Rubber Bass,2(55),Rubber Bass,2,
,17,SH101 Bass 1,1(88),SH101Bass 1,1,---,　,
,18,SH101 Bass 2,1(88),SH101Bass 2,1,---,　,
,19,Smooth Bass,2(88),Smooth Bass,2,---,　,
,20,SH101 Bass 3,1,---,　,---,　,
,21,Spike Bass,1,---,　,---,　,
,22,House Bass:,2,---,　,---,　,
,23,KG Bass,2,---,　,---,　,
,24,Sync Bass,2,---,　,---,　,
,25,MG 5th Bass,2,---,　,---,　,
,26,RND Bass,2,---,　,---,　,
,27,WowMG Bass,2,---,　,---,　,
,28,Bubble Bass,2,---,　,---,　,
1,0,Violin :,2,Violin,1,Violin,1,
,1,Violin Atk:,2,---,　,---,　,
,8,Slow Violin,1,Slow Violin,1,Slow Violin,1,
42,0,Viola :,2,Viola,1,Viola,1,
,1,Viola Atk.:,2,---,　,---,　,
43,0,Cello :,2,Cello,1,Cello,1,
,1,Cello Atk.:,2,---,　,---,　,
44,0,Contrabass,1,Contrabass,1,Contrabass,1,
45,0,Tremolo Str,1(88),Tremolo Str,1,Tremolo Str,1,
,8,Slow Tremolo,1(88),SlowTremolo,1,---,　,
,9,Suspense Str,2(88),SuspenseStr,2,---,　,
46,0,PizzicatoStr,1(88),Pizz. Str.,1,Pizzicato,1,
,1,Vcs&Cbs Pizz,2,---,　,---,　,
,2,Chamber Pizz,2,---,　,---,　,
,3,St. Pizzicato,2,---,　,---,　,
,8,Solo Pizz.,1,---,　,---,　,
,16,Solo Spic.,1,---,　,---,　,
47,0,Harp,1(88),Harp,1,Harp,1,
,16,Synth Harp,1,---,　,---,　,
48,0,Timpani,1(88),Timpani,1,Timpani,1,
49,0,Strings :,2,Strings,1,Strings,1,
,1,Bright Str:,1,Strings 2,1,---,　,
,2,ChamberStr:,2,---,　,---,　,
,3,Cello sect.,1,---,　,---,　,
,8,Orchestra,2,Orchestra,2,Orchestra,2,
,9,Orchestra 2,2,Orchestra 2,2,---,　,
,10,Tremolo Orch,2(88),TremoloOrch,2,---,　,
,11,Choir Str.,2,Choir Str.,2,---,　,
,12,Strings+Horn,2,---,　,---,　,
,16,St. Strings,2,St.Strings,2,---,　,
,24,Velo Strings,2(88),VeloStrings,2,---,　,
,32,Oct Strings1,2,---,　,---,　,
,33,Oct Strings2,2,---,　,---,　,
50,0,SlowStrings,1,SlowStrings,1,SlowStrings,1,
,1,SlowStrings2,1,Slow Str. 2,1,---,　,
,8,Legato Str.,2(88),Legato Str.,2,---,　,
,9,Warm Strings,2(88),WarmStrings,2,---,　,
,10,St.Slow Str.,2,St.SlowStr.,2,---,　,
51,0,Syn.Strings1,2,SynStrings1,2,SynStrings1,2,
,1,OB Strings,2,OB Strings,2,---,　,
,2,StackStrings,2,---,　,---,　,
,3,JP Strings,2,---,　,---,　,
,8,Syn.Strings3,2(55),SynStrings3,2(55),SynStrings3,2,
,9,Syn.Strings4,2,---,　,---,　,
,16,High Strings,2,---,　,---,　,
,17,Hybrid Str.,2,---,　,---,　,
,24,Tron Strings,2,---,　,---,　,
,25,Noiz Strings,2,---,　,---,　,
52,0,Syn.Strings2,2(55),SynStrings2,2(55),SynStrings2,2,
,1,Syn.Strings5,2,---,　,---,　,
,2,JUNO Strings,2,---,　,---,　,
,8,Air Strings,2,---,　,---,　,
53,0,Choir Aahs,1,Choir Aahs,1,Choir Aahs,1,
,8,St.ChoirAahs,2,St.Choir,2,---,　,
,9,Melted Choir,2,Mello Choir,2,---,　,
,10,Church Choir,2,---,　,---,　,
,16,Choir Hahs,1,---,　,---,　,
,24,Chorus Lahs,1,---,　,---,　,
,32,Chorus Aahs,2,ChoirAahs 2,1(55),Choir Aahs2,1,
,33,Male Aah+Str,2,---,　,---,　,
54,0,Voice Oohs,1(55),Voice Oohs,1(55),Voice Oohs,1,
,8,Voice Dahs,1,---,　,---,　,
55,0,SynVox,1(55),SynVox,1(55),SynVox,1,
,8,Syn.Voice,2(88),Syn.Voice,2,---,　,
,9,Silent Night,2,---,　,---,　,
,16,VP330 Choir,1,---,　,---,　,
,17,Vinyl Choir,2,---,　,---,　,
56,0,OrchestraHit,2(88),Orch. Hit,2,Orchest.Hit,2,
,8,Impact Hit,2(88),Impact Hit,2,---,　,
,9,Philly Hit,2(88),Philly Hit,2,---,　,
,10,Double Hit,2(88),Double Hit,2,---,　,
,11,Perc. Hit,1,---,　,---,　,
,12,Shock Wave,2,---,　,---,　,
,16,Lo Fi Rave,2(88),Lo Fi Rave,2,---,　,
,17,Techno Hit,1,---,　,---,　,
,18,Dist. Hit,1,---,　,---,　,
,19,Bam Hit,1,---,　,---,　,
,20,Bit Hit,1,---,　,---,　,
,21,Bim Hit,1,---,　,---,　,
,22,Technorg Hit,1,---,　,---,　,
,23,Rave Hit,2,---,　,---,　,
,24,Strings Hit,2,---,　,---,　,
,25,Stack Hit,2,---,　,---,　,
57,0,Trumpet,1,Trumpet,1,Trumpet,1,
,1,Trumpet 2,1(88),Trumpet 2,1,---,　,
,2,Trumpet :,1,---,　,---,　,
,8,Flugel Horn,1(88),Flugel Horn,1,---,　,
,16,4th Trumpets,2,---,　,---,　,
,24,Bright Tp.,2,Bright Tp.,2,---,　,
,25,Warm Tp.,2(88),Warm Tp.,2,---,　,
,32,Syn. Trumpet,1,---,　,---,　,
58,0,Trombone,1,Trombone,1,Trombone,1,
,1,Trombone 2,1,Trombone 2,2(55),Trombone 2,2,
,2,Twin bones,2,---,　,---,　,
,8,Bs. Trombone,1,---,　,---,　,
59,0,Tuba,1(88),Tuba,1,Tuba,1,
,1,Tuba 2,1(88),Tuba 2,1,---,　,
60,0,MutedTrumpet,1(88),Muted Tp.,1,MuteTrumpet,1,
,8,Muted Horns,1,---,　,---,　,
61,0,French Horns,1(88),FrenchHorns,1,French Horn,2,
,1,Fr.Horn 2,2(55),Fr.Horn 2,2(55),Fr.Horn 2,2,
,2,Horn + Orche,2,---,　,---,　,
,3,Wide FreHrns,2,---,　,---,　,
,8,F.Hrn Slow:,1(88),Fr.HornSolo,1,---,　,
,9,Dual Horns,2,---,　,---,　,
,16,Synth Horn,2,Horn Orch,2,---,　,
,24,F.Horn Rip,1,---,　,---,　,
62,0,Brass 1,2,Brass 1,1(55),Brass 1,1,
,1,Brass ff,1,---,　,---,　,
,2,Bones Sect.,1,---,　,---,　,
,8,Brass 2,2,Brass 2,2,Brass 2,2,
,9,Brass 3,2,---,　,---,　,
,10,Brass sfz,2,---,　,---,　,
,16,Brass Fall,1(88),Brass Fall,1,---,　,
,17,Trumpet Fall,1,---,　,---,　,
,24,Octave Brass,2,---,　,---,　,
,25,Brass + Reed,2,---,　,---,　,
63,0,SynthBrass1,2,SynthBrass1,2,Syn.Brass 1,2,
,1,JUNO Brass,2,Poly Brass,2,---,　,
,2,StackBrass,2,---,　,---,　,
,3,SH-5 Brass,2,---,　,---,　,
,4,MKS Brass,2,---,　,---,　,
,8,Pro Brass,2,Syn.Brass 3,2(55),Syn.Brass 3,2,
,9,P5 Brass,2,Quack Brass,2,---,　,
,16,Oct SynBrass,2,OctaveBrass,2,Analog Brs1,2,
,17,Hybrid Brass,2,---,　,---,　,
64,0,Synth Brass 2,2,Syn.Brass 2,2(55),Syn.Brass 2,2,
,1,Soft Brass,2,Soft Brass,2,---,　,
,2,Warm Brass,2,---,　,---,　,
,8,SynBrass sfz,1,Syn.Brass 4,1(55),Syn.Brass 4,1,
,9,OB Brass,2,---,　,---,　,
,10,Reso Brass,2,---,　,---,　,
,16,Velo Brass 1,2(88),VeloBrass 1,2,Analog Brs2,2,
,17,Transbrass,2,VeloBrass 2,2,---,　,
65,0,Soprano Sax,1,Soprano Sax,1,Soprano Sax,1,
,8,Soprano Exp.,1,---,　,---,　,
66,0,Alto Sax,1,Alto Sax,1,Alto Sax,1,
,8,AltoSax Exp.,1,Hyper Alto,1,---,　,
,9,Grow Sax,1,---,　,---,　,
,16,AltoSax + Tp,2,---,　,---,　,
67,0,Tenor Sax,2,Tenor Sax,2,Tenor Sax,1,
,1,Tenor Sax :,2,---,　,---,　,
,8,BreathyTn.:,1,BreathyTnr.,1,---,　,
,9,St. Tenor Sax,2,---,　,---,　,
68,0,Baritone Sax,2,BaritoneSax,1,BaritoneSax,1,
,1,Bari. Sax :,2,---,　,---,　,
69,0,Oboe,1,Oboe,1,Oboe,1,
,8,Oboe Exp.,1,---,　,---,　,
,16,Multi Reed,1,---,　,---,　,
70,0,English Horn,1(88),EnglishHorn,1,EnglishHorn,1,
71,0,Bassoon,1(88),Bassoon,1,Bassoon,1,
72,0,Clarinet,1,Clarinet,1,Clarinet,1,
,8,Bs Clarinet,1(88),Bs Clarinet,1,---,　,
,16,Multi Wind,1,---,　,---,　,
73,0,Piccolo,1(88),Piccolo,1,Piccolo,1,
,1,Piccolo :,1,---,　,---,　,
,8,Nay,2,---,　,---,　,
,9,Nay Tremolo,2,---,　,---,　,
,16,Di,2,---,　,---,　,
74,0,Flute,1(88),Flute,1,Flute,1,
,1,Flute 2 :,1,---,　,---,　,
,2,Flute Exp.,1,---,　,---,　,
,3,Flt Travelso,2,---,　,---,　,
,8,Flute + Vln,2,---,　,---,　,
,16,Tron Flute,1,---,　,---,　,
75,0,Recorder,1(55),Recorder,1(55),Recorder,1,
76,0,Pan Flute,2(88),Pan Flute,2,Pan Flute,1,
,8,Kawala,2(88),Kawala,2,---,　,
,16,Zampona,2,---,　,---,　,
,17,Zampona Atk,1,---,　,---,　,
77,0,Bottle Blow,2(88),Bottle Blow,2,Bottle Blow,2,
78,0,Shakuhachi,2(55),Shakuhachi,2(55),Shakuhachi,2,
,1,Shakuhachi:,2,---,　,---,　,
79,0,Whistle,1(55),Whistle,1(55),Whistle,1,
,1,Whistle 2,2,---,　,---,　,
80,0,Ocarina,1(55),Ocarina,1(55),Ocarina,1,
81,0,Square Wave,2,Square Wave,2(55),Square Wave,2,
,1,MG Square,1,Square,1(55),Square,1,
,2,Hollow Mini,1(88),Hollow Mini,1,---,　,
,3,Mellow FM,2(88),Mellow FM,2,---,　,
,4,CC Solo,2(88),CC Solo,2,---,　,
,5,Shmoog,2(88),Shmoog,2,---,　,
,6,LM Square,2(88),LM Square,2,---,　,
,8,2600 Sine,1,Sine Wave,1(55),Sine Wave,1,
,9,Sine Lead,1,---,　,---,　,
,10,KG Lead,1,---,　,---,　,
,16,P5 Square,1,---,　,---,　,
,17,OB Square,1,---,　,---,　,
,18,JP-8 Square,1,---,　,---,　,
,24,Pulse Lead,2,---,　,---,　,
,25,JP8 PulseLd1,2,---,　,---,　,
,26,JP8 PulseLd2,1,---,　,---,　,
,27,MG Reso. Pls,1,---,　,---,　,
82,0,Saw Wave,2,Saw Wave,2(55),Saw Wave,2,
,1,OB2 Saw,1,Saw,1(55),Saw,1,
,2,Pulse Saw,2(88),Pulse Saw,2,---,　,
,3,Feline GR,2(88),Feline GR,2,---,　,
,4,Big Lead,2(88),Big Lead,2,---,　,
,5,Velo Lead,2(88),Velo Lead,2,---,　,
,6,GR-300,2(88),GR-300,2,---,　,
,7,LA Saw,1(88),LA Saw,1,---,　,
,8,Doctor Solo,2(55),Doctor Solo,2(55),Doctor Solo,2,
,9,Fat Saw Lead,2,---,　,---,　,
,11,D-50 Fat Saw,2,---,　,---,　,
,16,Waspy Synth,2(88),Waspy Synth,2,---,　,
,17,PM Lead,1,---,　,---,　,
,18,CS Saw Lead,1,---,　,---,　,
,24,MG Saw 1,1,---,　,---,　,
,25,MG Saw 2,1,---,　,---,　,
,26,OB Saw 1,1,---,　,---,　,
,27,OB Saw 2,1,---,　,---,　,
,28,D-50 Saw,1,---,　,---,　,
,29,SH-101 Saw,1,---,　,---,　,
,30,CS Saw,1,---,　,---,　,
,31,MG Saw Lead,1,---,　,---,　,
,32,OB Saw Lead,1,---,　,---,　,
,33,P5 Saw Lead,2,---,　,---,　,
,34,MG unison,2,---,　,---,　,
,35,Oct Saw Lead,2,---,　,---,　,
,40,SequenceSaw1,2,---,　,---,　,
,41,SequenceSaw2,1,---,　,---,　,
,42,Reso Saw,1,---,　,---,　,
,43,Cheese Saw 1,1,---,　,---,　,
,44,Cheese Saw 2,2,---,　,---,　,
,45,Rhythmic Saw,2,---,　,---,　,
83,0,Syn.Calliope,2(55),SynCalliope,2(55),SynCalliope,2,
,1,Vent Synth,2(88),Vent Synth,2,---,　,
,2,Pure PanLead,2(88),PurePanLead,2,---,　,
84,0,Chiffer Lead,2(55),ChifferLead,2(55),ChifferLead,2,
,1,TB Lead,2,---,　,---,　,
,8,Mad Lead,2,---,　,---,　,
85,0,Charang,2(55),Charang,2(55),Charang,2,
,8,Dist.Lead,2(88),Dist.Lead,2,---,　,
,9,Acid Guitar1,2,---,　,---,　,
,10,Acid Guitar2,2,---,　,---,　,
,16,P5 Sync Lead,1,---,　,---,　,
,17,Fat Sync Lead,2,---,　,---,　,
,18,Rock Lead,2,---,　,---,　,
,19,5th DecaSync,2,---,　,---,　,
,20,Dirty Sync,1,---,　,---,　,
,24,JUNO Sub Osc,1,---,　,---,　,
86,0,Solo Vox,2(55),Solo Vox,2(55),Solo Vox,2,
,8,Vox Lead,2,---,　,---,　,
,9,LFO Vox,2,---,　,---,　,
87,0,5th Saw Wave,2(55),5th Saw,2(55),5th Saw,2,
,1,Big Fives,2(88),Big Fives,2,---,　,
,2,5th Lead,2,---,　,---,　,
,3,5th Ana.Clav,2,---,　,---,　,
,8,4th Lead,2,---,　,---,　,
88,0,Bass & Lead,2(55),Bass & Lead,2(55),Bass & Lead,2,
,1,Big & Raw,2(88),Big & Raw,2,---,　,
,2,Fat & Perky,2(88),Fat & Perky,2,---,　,
,3,JUNO Rave,1,---,　,---,　,
,4,JP8 BsLead 1,1,---,　,---,　,
,5,JP8 BsLead 2,2,---,　,---,　,
,6,SH-5 Bs.Lead,2,---,　,---,　,
89,0,Fantasia,2(55),Fantasia,2(55),Fantasia,2,
,1,Fantasia 2,2(88),Fantasia 2,2,---,　,
,2,New Age Pad,2,---,　,---,　,
,3,Bell Heaven,2,---,　,---,　,
90,0,Warm Pad,1(55),Warm Pad,1(55),Warm Pad,1,
,1,Thick Matrix,2,Thick Pad,2,---,　,
,2,Horn Pad,2(88),Horn Pad,2,---,　,
,3,Rotary Strng,2(88),RotaryStrng,2,---,　,
,4,OB Soft Pad,2,Soft Pad,2,---,　,
,8,Octave Pad,2,---,　,---,　,
,9,Stack Pad,2,---,　,---,　,
91,0,Polysynth,2(55),Polysynth,2(55),Polysynth,2,
,1,80's PolySyn,2(88),80'sPolySyn,2,---,　,
,2,Polysynth 2,2,---,　,---,　,
,3,Poly King,2,---,　,---,　,
,8,Power Stack,2,---,　,---,　,
,9,Octave Stack,2,---,　,---,　,
,10,Reso Stack,1,---,　,---,　,
,11,Techno Stack,2,---,　,---,　,
92,0,Space Voice,1(55),Space Voice,1(55),Space Voice,1,
,1,Heaven II,2(88),Heaven II,2,---,　,
,2,SC Heaven,2,---,　,---,　,
,8,Cosmic Voice,2,---,　,---,　,
,9,Auh Vox,1,---,　,---,　,
,10,AuhAuh,2,---,　,---,　,
,11,Vocorderman,2,---,　,---,　,
93,0,Bowed Glass,2(55),Bowed Glass,2(55),Bowed Glass,2,
,1,SoftBellPad,2,---,　,---,　,
,2,JP8 Sqr Pad,2,---,　,---,　,
,3,7thBelPad,2,---,　,---,　,
94,0,Metal Pad,2(55),Metal Pad,2(55),Metal Pad,2,
,1,Tine Pad,2(88),Tine Pad,2,---,　,
,2,Panner Pad,2(88),Panner Pad,2,---,　,
95,0,Halo Pad,2(55),Halo Pad,2(55),Halo Pad,2,
,1,Vox Pad,2,---,　,---,　,
,2,Vox Sweep,2,---,　,---,　,
,8,Horror Pad,2,---,　,---,　,
96,0,Sweep Pad,1(55),Sweep Pad,1(55),Sweep Pad,1,
,1,Polar Pad,1(88),Polar Pad,1,---,　,
,8,Converge,1(88),Converge,1,---,　,
,9,Shwimmer,2(88),Shwimmer,2,---,　,
,10,Celestial Pd,2(88),CelestialPd,2,---,　,
,11,Bag Sweep,2,---,　,---,　,
97,0,Ice Rain,2(55),Ice Rain,2(55),Ice Rain,2,
,1,Harmo Rain,2(88),Harmo Rain,2,---,　,
,2,African wood,2(88),AfricanWood,2,---,　,
,3,Anklung Pad,2,---,　,---,　,
,4,Rattle Pad,2,---,　,---,　,
,8,Clavi Pad,2(88),Clavi Pad,2,---,　,
98,0,Soundtrack,2(55),Soundtrack,2(55),Soundtrack,2,
,1,Ancestral,2(88),Ancestral,2,---,　,
,2,Prologue,2(88),Prologue,2,---,　,
,3,Prologue 2,2,---,　,---,　,
,4,Hols Strings,2,---,　,---,　,
,8,Rave,2(88),Rave,2,---,　,
99,0,Crystal,2(55),Crystal,2(55),Crystal,2,
,1,Syn Mallet,1(55),Syn Mallet,1(55),Syn Mallet,1,
,2,Soft Crystal,2(88),SoftCrystal,2,---,　,
,3,Round Glock,2(88),Round Glock,2,---,　,
,4,Loud Glock,2(88),Loud Glock,2,---,　,
,5,GlockenChime,2(88),GlocknChime,2,---,　,
,6,Clear Bells,2(88),Clear Bells,2,---,　,
,7,ChristmasBel,2(88),X'mas Bell,2,---,　,
,8,Vibra Bells,2(88),Vibra Bells,2,---,　,
,9,Digi Bells,2(88),Digi Bells,2,---,　,
,10,Music Bell,2,---,　,---,　,
,11,Analog Bell,1,---,　,---,　,
,16,Choral Bells,2(88),ChoralBells,2,---,　,
,17,Air Bells,2(88),Air Bells,2,---,　,
,18,Bell Harp,2(88),Bell Harp,2,---,　,
,19,Gamelimba,2(88),Gamelimba,2,---,　,
,20,JUNO Bell,2,---,　,---,　,
100,0,Atmosphere,2(55),Atmosphere,2(55),Atmosphere,2,
,1,Warm Atmos,2(88),Warm Atmos,2,---,　,
,2,Nylon Harp,2(88),Nylon Harp,2,---,　,
,3,Harpvox,2(88),Harpvox,2,---,　,
,4,HollowReleas,2(88),HollowRels.,2,---,　,
,5,Nylon+Rhodes,2(88),NylonRhodes,2,---,　,
,6,Ambient Pad,2(88),Ambient Pad,2,---,　,
,7,Invisible,2,---,　,---,　,
,8,Pulsey Key,2,---,　,---,　,
,9,Noise Piano,2,---,　,---,　,
101,0,Brightness,2(55),Brightness,2(55),Brightness,2,
,1,Shining Star,2,---,　,---,　,
,2,OB Stab,1,---,　,---,　,
,8,Org Bell,2,---,　,---,　,
102,0,Goblin,2(55),Goblin,2(55),Goblin,2,
,1,Goblinson,2(88),Goblinson,2,---,　,
,2,50's Sci-Fi,2(88),50's Sci-Fi,2,---,　,
,3,Abduction,2,---,　,---,　,
,4,Auhbient,2,---,　,---,　,
,5,LFO Pad,2,---,　,---,　,
,6,Random Str,2,---,　,---,　,
,7,Random Pad,2,---,　,---,　,
,8,LowBirds Pad,2,---,　,---,　,
,9,Falling Down,2,---,　,---,　,
,10,LFO RAVE,2,---,　,---,　,
,11,LFO Horror,2,---,　,---,　,
,12,LFO Techno,2,---,　,---,　,
,13,Alternative,2,---,　,---,　,
,14,UFO FX,2,---,　,---,　,
,15,Gargle Man,1,---,　,---,　,
,16,Sweep FX,1,---,　,---,　,
103,0,Echo Drops,1(55),Echo Drops,1(55),Echo Drops,1,
,1,Echo Bell,2(55),Echo Bell,2(55),Echo Bell,2,
,2,Echo Pan,2(55),Echo Pan,2(55),Echo Pan,2,
,3,Echo Pan 2,2(88),Echo Pan 2,2,---,　,
,4,Big Panner,2(88),Big Panner,2,---,　,
,5,Reso Panner,2(88),Reso Panner,2,---,　,
,6,Water Piano,2(88),Water Piano,2,---,　,
,8,Pan Sequence,2,---,　,---,　,
,9,Aqua,2,---,　,---,　,
104,0,Star Theme,2(55),Star Theme,2(55),Star Theme,2,
,1,Star Theme 2,2(88),StarTheme 2,2,---,　,
,8,Dream Pad,2,---,　,---,　,
,9,Silky Pad,2,---,　,---,　,
,16,New Century,1,---,　,---,　,
,17,7th Atmos.,2,---,　,---,　,
,18,Galaxy Way,2,---,　,---,　,
105,0,Sitar,1(55),Sitar,1(55),Sitar,1,
,1,Sitar 2,2(55),Sitar 2,2(55),Sitar 2,2,
,2,Detune Sitar,2(88),DetuneSitar,2,---,　,
,3,Sitar 3,2,---,　,---,　,
,8,Tambra,1(88),Tambra,1,---,　,
,16,Tamboura,2(88),Tamboura,2,---,　,
106,0,Banjo,1(88),Banjo,1,Banjo,1,
,1,Muted Banjo,1(88),Muted Banjo,1,---,　,
,8,Rabab,2(88),Rabab,2,---,　,
,9,San Xian,2,---,　,---,　,
,16,Gopichant,2(88),Gopichant,2,---,　,
,24,Oud,2(88),Oud,2,---,　,
,28,Oud+Strings,2,---,　,---,　,
,32,Pi Pa,1,---,　,---,　,
107,0,Shamisen,1(55),Shamisen,1(55),Shamisen,1,
,1,Tsugaru,2(88),Tsugaru,2,---,　,
,8,Syn Shamisen,2,---,　,---,　,
108,0,Koto,2,Koto,1(55),Koto,1,
,1,Gu Zheng,2,---,　,---,　,
,8,Taisho Koto,1(88),Taisho Koto,1,Taisho Koto,2,
,16,Kanoon,2(88),Kanoon,2,---,　,
,19,Kanoon+Choir,2,---,　,---,　,
,24,Oct Harp,1,---,　,---,　,
109,0,Kalimba,1,Kalimba,1,Kalimba,1,
,8,Sanza,2,---,　,---,　,
110,0,Bagpipe,1(88),Bagpipe,1,Bagpipe,1,
,8,Didgeridoo,1(+),---,　,---,　,
111,0,Fiddle,1(55),Fiddle,1(55),Fiddle,1,
,8,Er Hu,1,---,　,---,　,
,9,Gao Hu,1,---,　,---,　,
112,0,Shanai,1(55),Shanai,1(55),Shanai,1,
,1,Shanai 2,1(88),Shanai 2,1,---,　,
,8,Pungi,1(88),Pungi,1,---,　,
,16,Hichiriki,2(88),Hichiriki,2,---,　,
,24,Mizmar,1,---,　,---,　,
,32,Suona 1,1,---,　,---,　,
,33,Suona 2,1,---,　,---,　,
113,0,Tinkle Bell,1(55),Tinkle Bell,1(55),Tinkle Bell,1,
,8,Bonang,1(88),Bonang,1,---,　,
,9,Gender,1(88),Gender,1,---,　,
,10,Gamelan Gong,1(88),GamelanGong,1,---,　,
,11,St.Gamelan,2(88),St.Gamelan,2,---,　,
,12,Jang-Gu,2,---,　,---,　,
,16,RAMA Cymbal,1(88),RAMA Cymbal,1,---,　,
114,0,Agogo,1(55),Agogo,1(55),Agogo,1,
,8,Atarigane,1(88),Atarigane,1,---,　,
,16,Tambourine,1(+),---,　,---,　,
115,0,Steel Drums,1(55),Steel Drums,1(55),Steel Drums,1,
,1,Island Mlt,2,---,　,---,　,
116,0,Woodblock,1(55)(+),Woodblock,1(55)(+),Woodblock,1(+),
,8,Castanets,1(55)(+),Castanets,1(55)(+),Castanets,1(+),
,16,Angklung,1,---,　,---,　,
,17,Angkl Rhythm,2,---,　,---,　,
,24,Finger Snaps,1(+),---,　,---,　,
,32,909 HandClap,1(+),---,　,---,　,
117,0,Taiko,1(55)(+),Taiko,1(55)(+),Taiko,1(+),
,1,Small Taiko,1(+),---,　,---,　,
,8,Concert BD,1(55)(+),Concert BD,1(55)(+),Concert BD,1(+),
,16,Jungle BD,1(+),---,　,---,　,
,17,Techno BD,1(+),---,　,---,　,
,18,Bounce,1(+),---,　,---,　,
118,0,Melo. Tom 1,1(55)(+),Melo. Tom 1,1(55)(+),Melo. Tom 1,1(+),
,1,Real Tom,2(88)(+),Real Tom,2(+),---,　,
,8,Melo. Tom 2,1(55)(+),Melo. Tom 2,1(55)(+),Melo. Tom 2,1(+),
,9,Rock Tom,2(88)(+),Rock Tom,2(+),---,　,
,16,Rash SD,1(+),---,　,---,　,
,17,House SD,1(+),---,　,---,　,
,18,Jungle SD,1(+),---,　,---,　,
,19,909 SD,1(+),---,　,---,　,
119,0,Synth Drum,1(55)(+),Synth Drum,1(55)(+),Synth Drum,1(+),
,8,808 Tom,2(88)(+),808 Tom,2(+),808 Tom,1(+),
,9,Elec Perc,1(55)(+),Elec Perc,1(55)(+),Elec Perc,1(+),
,10,Sine Perc.,1,---,　,---,　,
,11,606 Tom,1(+),---,　,---,　,
,12,909 Tom,1(+),---,　,---,　,
120,0,Reverse Cym.,1(55)(+),Reverse Cym,1(55)(+),Reverse Cym,1(+),
,1,Reverse Cym2,1(88)(+),ReverseCym2,1(+),---,　,
,2,Reverse Cym3,1(+),---,　,---,　,
,8,Rev.Snare 1,1(88)(+),Rev.Snare 1,1(+),---,　,
,9,Rev.Snare 2,1(88)(+),Rev.Snare 2,1(+),---,　,
,16,Rev.Kick 1,1(88)(+),Rev.Kick 1,1(+),---,　,
,17,Rev.ConBD,1(88)(+),Rev.ConBD,1(+),---,　,
,24,Rev.Tom 1,1(88)(+),Rev.Tom 1,1(+),---,　,
,25,Rev.Tom 2,1(88)(+),Rev.Tom 2,1(+),---,　,
121,0,Gt.FretNoise,1(55),Gt.FretNoiz,1(55),Gt.FretNoiz,1,
,1,Gt.Cut Noise,1(55)(+),Gt.CutNoise,1(55)(+),Gt.CutNoise,1(+),
,2,String Slap,1(55)(+),String Slap,1(55)(+),String Slap,1(+),
,3,Gt.CutNoise2,1(88)(+),Gt.CutNz. 2,1(+),---,　,
,4,Dist.CutNoiz,1(88)(+),Dist.CutNz.,1(+),---,　,
,5,Bass Slide,1(88)(+),Bass Slide,1(+),---,　,
,6,Pick Scrape,1(88)(+),Pick Scrape,1(+),---,　,
,8,Gt. FX Menu,1,---,　,---,　,
,9,Bartok Pizz.,1,---,　,---,　,
,10,Guitar Slap,1(+),---,　,---,　,
,11,Chord Stroke,1,---,　,---,　,
,12,Biwa Stroke,1(+),---,　,---,　,
,13,Biwa Tremolo,1(+),---,　,---,　,
122,0,Breath Noise,1(55),BreathNoise,1(55),BreathNoise,1,
,1,Fl.Key Click,1(55)(+),Fl.KeyClick,1(55)(+),Fl.KeyClick,1(+),
123,0,Seashore,1(55)(+),Seashore,1(55)(+),Seashore,1(+),
,1,Rain,1(55)(+),Rain,1(55)(+),Rain,1(+),
,2,Thunder,1(55)(+),Thunder,1(55)(+),Thunder,1(+),
,3,Wind,1(55)(+),Wind,1(55)(+),Wind,1(+),
,4,Stream,2(55)(+),Stream,2(55)(+),Stream,2(+),
,5,Bubble,2(55)(+),Bubble,2(55)(+),Bubble,2(+),
,6,Wind 2,1(+),---,　,---,　,
,16,Pink Noise,1,---,　,---,　,
,17,White Noise,1,---,　,---,　,
124,0,Bird,2(55)(+),Bird,2(55)(+),Bird,2(+),
,1,Dog,1(55)(+),Dog,1(55)(+),Dog,1(+),
,2,Horse-Gallop,1(55)(+),HorseGallop,1(55)(+),HorseGallop,1(+),
,3,Bird 2,1(55)(+),Bird 2,1(55)(+),Bird 2,1(+),
,4,Kitty,1(88)(+),Kitty,1(+),---,　,
,5,Growl,1(88)(+),Growl,1(+),---,　,
125,0,Telephone 1,1(55)(+),Telephone 1,1(55)(+),Telephone 1,1(+),
,1,Telephone 2,1(55)(+),Telephone 2,1(55)(+),Telephone 2,1(+),
,2,DoorCreaking,1(55)(+),Creaking,1(55)(+),Creaking,1(+),
,3,Door,1(55)(+),Door,1(55)(+),Door,1(+),
,4,Scratch,1(55)(+),Scratch,1(55)(+),Scratch,1(+),
,5,Wind Chimes,2(55)(+),Wind Chimes,2(55)(+),Wind Chimes,2(+),
,7,Scratch 2,1(88)(+),Scratch 2,1(+),---,　,
,8,ScratchKey,2(+),---,　,---,　,
,9,TapeRewind,1(+),---,　,---,　,
,10,Phono Noise,1(+),---,　,---,　,
,11,MC-500 Beep,1,---,　,---,　,
126,0,Helicopter,1(55)(+),Helicopter,1(55)(+),Helicopter,1(+),
,1,Car-Engine,1(55)(+),Car-Engine,1(55)(+),Car-Engine,1(+),
,2,Car-Stop,1(55)(+),Car-Stop,1(55)(+),Car-Stop,1(+),
,3,Car-Pass,1(55)(+),Car-Pass,1(55)(+),Car-Pass,1(+),
,4,Car-Crash,2(55)(+),Car-Crash,2(55)(+),Car-Crash,2(+),
,5,Siren,1(55)(+),Siren,1(55)(+),Siren,1(+),
,6,Train,1(55)(+),Train,1(55)(+),Train,1(+),
,7,Jetplane,2(55)(+),Jetplane,2(55)(+),Jetplane,2(+),
,8,Starship,2(55)(+),Starship,2(55)(+),Starship,2(+),
,9,Burst Noise,2(55)(+),Burst Noise,2(55)(+),Burst Noise,2(+),
,10,Calculating,2(+),---,　,---,　,
,11,Perc. Bang,2(+),---,　,---,　,
127,0,Applause,2(55)(+),Applause,2(55)(+),Applause,2(+),
,1,Laughing,1(55)(+),Laughing,1(55)(+),Laughing,1(+),
,2,Screaming,1(55)(+),Screaming,1(55)(+),Screaming,1(+),
,3,Punch,1(55)(+),Punch,1(55)(+),Punch,1(+),
,4,Heart Beat,1(55),Heart Beat,1(55),Heart Beat,1,
,5,Footsteps,1(55)(+),Footsteps,1(55)(+),Footsteps,1(+),
,6,Applause 2,2(88)(+),Applause 2,2(+),---,　,
,7,Small Club,2(+),---,　,---,　,
,8,ApplauseWave,2(+),---,　,---,　,
,16,Voice One,1(+),---,　,---,　,
,17,Voice Two,1(+),---,　,---,　,
,18,Voice Three,1(+),---,　,---,　,
,19,Voice Tah,1(+),---,　,---,　,
,20,Voice Whey,1(+),---,　,---,　,
128,0,Gun Shot,1(55)(+),Gun Shot,1(55)(+),Gun Shot,1(+),
,1,Machine Gun,1(55)(+),Machine Gun,1(55)(+),Machine Gun,1(+),
,2,Lasergun,1(55)(+),Lasergun,1(55)(+),Lasergun,1(+),
,3,Explosion,2(55)(+),Explosion,2(55)(+),Explosion,2(+),
,4,Eruption,1(+),---,　,---,　,
,5,Big Shot,2(+),---,　,---,,
